waves/wave_top_DCO.vcd
$date
	Thu Jul 10 22:21:54 2025
$end
$version
	Icarus Verilog
$end
$timescale
	1ps
$end
$scope module tb_top_DCO $end
$var wire 2 ! clockp [1:0] $end
$var reg 1 " dco $end
$var reg 5 # div [4:0] $end
$var reg 1 $ enable $end
$var reg 26 % ext_trim [25:0] $end
$var reg 1 & osc $end
$var reg 1 ' resetb $end
$var real 1 ( T $end
$var real 1 ) freq $end
$var integer 32 * i [31:0] $end
$var real 1 + t_end $end
$var real 1 , t_start $end
$scope module dut $end
$var wire 1 " dco $end
$var wire 5 - div [4:0] $end
$var wire 1 $ enable $end
$var wire 26 . ext_trim [25:0] $end
$var wire 1 / ireset $end
$var wire 1 & osc $end
$var wire 1 ' resetb $end
$var wire 26 0 otrim [25:0] $end
$var wire 26 1 itrim [25:0] $end
$var wire 1 2 creset $end
$var wire 2 3 clockp_buffer_in [1:0] $end
$var wire 2 4 clockp [1:0] $end
$scope module clockp_buffer_0 $end
$var wire 1 5 I $end
$var wire 1 6 Z $end
$scope module gf180mcu_fd_sc_mcu7t5v0__clkbuf_inst $end
$var wire 1 5 I $end
$var wire 1 6 Z $end
$upscope $end
$upscope $end
$scope module clockp_buffer_1 $end
$var wire 1 7 I $end
$var wire 1 8 Z $end
$scope module gf180mcu_fd_sc_mcu7t5v0__clkbuf_inst $end
$var wire 1 7 I $end
$var wire 1 8 Z $end
$upscope $end
$upscope $end
$scope module pll_control $end
$var wire 1 9 clock $end
$var wire 5 : div [4:0] $end
$var wire 1 & osc $end
$var wire 1 2 reset $end
$var wire 26 ; trim [25:0] $end
$var wire 5 < tint [4:0] $end
$var wire 6 = sum [5:0] $end
$var reg 5 > count0 [4:0] $end
$var reg 5 ? count1 [4:0] $end
$var reg 3 @ oscbuf [2:0] $end
$var reg 3 A prep [2:0] $end
$var reg 7 B tval [6:0] $end
$upscope $end
$scope module ringosc $end
$var wire 1 / reset $end
$var wire 26 C trim [25:0] $end
$var wire 6 D bcount [5:0] $end
$var reg 2 E clockp [1:0] $end
$var reg 1 F hiclock $end
$var real 1 G delay $end
$upscope $end
$upscope $end
$upscope $end
$enddefinitions $end
#0
$dumpvars
r1.168 G
0F
b0 E
b0 D
b0 C
b0 B
b0 A
b0 @
b0 ?
b0 >
b0 =
b0 <
b0 ;
b1000 :
09
08
07
06
05
b0 4
b0 3
12
b0 1
b0 0
1/
b0 .
b1000 -
r0 ,
r0 +
bx *
r0 )
r0 (
0'
0&
b0 %
1$
b1000 #
1"
b0 !
$end
#3000
1F
#4168
0F
#5336
1F
#6504
0F
#7672
1F
#8840
0F
#10000
1&
#10008
1F
#11176
0F
#12344
1F
#13512
0F
#14680
1F
#15848
0F
#17016
1F
#18184
0F
#19352
1F
#20000
0&
#20520
0F
#21688
1F
#22856
0F
#24024
1F
#25192
0F
#26360
1F
#27528
0F
#28696
1F
#29864
0F
#30000
1&
#31032
1F
#32200
0F
#33368
1F
#34536
0F
#35704
1F
#36872
0F
#38040
1F
#39208
0F
#40000
0&
#40376
1F
#41544
0F
#42712
1F
#43880
0F
#45048
1F
#46216
0F
#47384
1F
#48552
0F
#49720
1F
#50000
0/
1'
1&
#50888
b10 !
b10 4
18
17
b10 3
b10 E
0F
#52056
b11 !
b11 4
16
15
19
b11 3
b11 E
1F
#53224
b1 !
b1 4
08
07
b1 3
b1 E
0F
#54392
b0 !
b0 4
06
05
09
b0 3
b0 E
1F
#55560
b10 !
b10 4
18
17
b10 3
b10 E
0F
#56728
b11 !
b11 4
16
15
19
b11 3
b11 E
1F
#57896
b1 !
b1 4
08
07
b1 3
b1 E
0F
#59064
b0 !
b0 4
06
05
09
b0 3
b0 E
1F
#60000
0&
#60232
b10 !
b10 4
18
17
b10 3
b10 E
0F
#61400
b11 !
b11 4
16
15
19
b11 3
b11 E
1F
#62568
b1 !
b1 4
08
07
b1 3
b1 E
0F
#63736
b0 !
b0 4
06
05
09
b0 3
b0 E
1F
#64904
b10 !
b10 4
18
17
b10 3
b10 E
0F
#66072
b11 !
b11 4
16
15
19
b11 3
b11 E
1F
#67240
b1 !
b1 4
08
07
b1 3
b1 E
0F
#68408
b0 !
b0 4
06
05
09
b0 3
b0 E
1F
#69576
b10 !
b10 4
18
17
b10 3
b10 E
0F
#70000
1&
#70744
b11 !
b11 4
16
15
19
b11 3
b11 E
1F
#71912
b1 !
b1 4
08
07
b1 3
b1 E
0F
#73080
b0 !
b0 4
06
05
09
b0 3
b0 E
1F
#74248
b10 !
b10 4
18
17
b10 3
b10 E
0F
#75416
b11 !
b11 4
16
15
19
b11 3
b11 E
1F
#76584
b1 !
b1 4
08
07
b1 3
b1 E
0F
#77752
b0 !
b0 4
06
05
09
b0 3
b0 E
1F
#78920
b10 !
b10 4
18
17
b10 3
b10 E
0F
#80000
0&
#80088
b11 !
b11 4
16
15
19
b11 3
b11 E
1F
#81256
b1 !
b1 4
08
07
b1 3
b1 E
0F
#82424
b0 !
b0 4
06
05
09
b0 3
b0 E
1F
#83592
b10 !
b10 4
18
17
b10 3
b10 E
0F
#84760
b11 !
b11 4
16
15
19
b11 3
b11 E
1F
#85928
b1 !
b1 4
08
07
b1 3
b1 E
0F
#87096
b0 !
b0 4
06
05
09
b0 3
b0 E
1F
#88264
b10 !
b10 4
18
17
b10 3
b10 E
0F
#89432
b11 !
b11 4
16
15
19
b11 3
b11 E
1F
#90000
1&
#90600
b1 !
b1 4
08
07
b1 3
b1 E
0F
#91768
b0 !
b0 4
06
05
09
b0 3
b0 E
1F
#92936
b10 !
b10 4
18
17
b10 3
b10 E
0F
#94104
b11 !
b11 4
16
15
19
b11 3
b11 E
1F
#95272
b1 !
b1 4
08
07
b1 3
b1 E
0F
#96440
b0 !
b0 4
06
05
09
b0 3
b0 E
1F
#97608
b10 !
b10 4
18
17
b10 3
b10 E
0F
#98776
b11 !
b11 4
16
15
19
b11 3
b11 E
1F
#99944
b1 !
b1 4
08
07
b1 3
b1 E
0F
#100000
0&
#101112
b0 !
b0 4
06
05
09
b0 3
b0 E
1F
#102280
b10 !
b10 4
18
17
b10 3
b10 E
0F
#103448
b11 !
b11 4
16
15
19
b11 3
b11 E
1F
#104616
b1 !
b1 4
08
07
b1 3
b1 E
0F
#105784
b0 !
b0 4
06
05
09
b0 3
b0 E
1F
#106952
b10 !
b10 4
18
17
b10 3
b10 E
0F
#108120
b11 !
b11 4
16
15
19
b11 3
b11 E
1F
#109288
b1 !
b1 4
08
07
b1 3
b1 E
0F
#110000
1&
#110456
b0 !
b0 4
06
05
09
b0 3
b0 E
1F
#111624
b10 !
b10 4
18
17
b10 3
b10 E
0F
#112792
b11 !
b11 4
16
15
19
b11 3
b11 E
1F
#113960
b1 !
b1 4
08
07
b1 3
b1 E
0F
#115128
b0 !
b0 4
06
05
09
b0 3
b0 E
1F
#116296
b10 !
b10 4
18
17
b10 3
b10 E
0F
#117464
b11 !
b11 4
16
15
19
b11 3
b11 E
1F
#118632
b1 !
b1 4
08
07
b1 3
b1 E
0F
#119800
b0 !
b0 4
06
05
09
b0 3
b0 E
1F
#120000
0&
#120968
b10 !
b10 4
18
17
b10 3
b10 E
0F
#122136
b11 !
b11 4
16
15
19
b11 3
b11 E
1F
#123304
b1 !
b1 4
08
07
b1 3
b1 E
0F
#124472
b0 !
b0 4
06
05
09
b0 3
b0 E
1F
#125640
b10 !
b10 4
18
17
b10 3
b10 E
0F
#126808
b11 !
b11 4
16
15
19
b11 3
b11 E
1F
#127976
b1 !
b1 4
08
07
b1 3
b1 E
0F
#129144
b0 !
b0 4
06
05
09
b0 3
b0 E
1F
#130000
1&
#130312
b10 !
b10 4
18
17
b10 3
b10 E
0F
#131480
b11 !
b11 4
16
15
19
b11 3
b11 E
1F
#132648
b1 !
b1 4
08
07
b1 3
b1 E
0F
#133816
b0 !
b0 4
06
05
09
b0 3
b0 E
1F
#134984
b10 !
b10 4
18
17
b10 3
b10 E
0F
#136152
b11 !
b11 4
16
15
19
b11 3
b11 E
1F
#137320
b1 !
b1 4
08
07
b1 3
b1 E
0F
#138488
b0 !
b0 4
06
05
09
b0 3
b0 E
1F
#139656
b10 !
b10 4
18
17
b10 3
b10 E
0F
#140000
0&
#140824
b11 !
b11 4
16
15
19
b11 3
b11 E
1F
#141992
b1 !
b1 4
08
07
b1 3
b1 E
0F
#143160
b0 !
b0 4
06
05
09
b0 3
b0 E
1F
#144328
b10 !
b10 4
18
17
b10 3
b10 E
0F
#145496
b11 !
b11 4
16
15
19
b11 3
b11 E
1F
#146664
b1 !
b1 4
08
07
b1 3
b1 E
0F
#147832
b0 !
b0 4
06
05
09
b0 3
b0 E
1F
#149000
b10 !
b10 4
18
17
b10 3
b10 E
0F
#150000
1&
#150168
b11 !
b11 4
16
15
19
b11 3
b11 E
1F
#151336
b1 !
b1 4
08
07
b1 3
b1 E
0F
#152504
b0 !
b0 4
06
05
09
b0 3
b0 E
1F
#153672
b10 !
b10 4
18
17
b10 3
b10 E
0F
#154840
b11 !
b11 4
16
15
19
b11 3
b11 E
1F
#156008
b1 !
b1 4
08
07
b1 3
b1 E
0F
#157176
b0 !
b0 4
06
05
09
b0 3
b0 E
1F
#158344
b10 !
b10 4
18
17
b10 3
b10 E
0F
#159512
b11 !
b11 4
16
15
19
b11 3
b11 E
1F
#160000
0&
#160680
b1 !
b1 4
08
07
b1 3
b1 E
0F
#161848
b0 !
b0 4
06
05
09
b0 3
b0 E
1F
#163016
b10 !
b10 4
18
17
b10 3
b10 E
0F
#164184
b11 !
b11 4
16
15
19
b11 3
b11 E
1F
#165352
b1 !
b1 4
08
07
b1 3
b1 E
0F
#166520
b0 !
b0 4
06
05
09
b0 3
b0 E
1F
#167688
b10 !
b10 4
18
17
b10 3
b10 E
0F
#168856
b11 !
b11 4
16
15
19
b11 3
b11 E
1F
#170000
1&
#170024
b1 !
b1 4
08
07
b1 3
b1 E
0F
#171192
b0 !
b0 4
06
05
09
b0 3
b0 E
1F
#172360
b10 !
b10 4
18
17
b10 3
b10 E
0F
#173528
b11 !
b11 4
16
15
19
b11 3
b11 E
1F
#174696
b1 !
b1 4
08
07
b1 3
b1 E
0F
#175864
b0 !
b0 4
06
05
09
b0 3
b0 E
1F
#177032
b10 !
b10 4
18
17
b10 3
b10 E
0F
#178200
b11 !
b11 4
16
15
19
b11 3
b11 E
1F
#179368
b1 !
b1 4
08
07
b1 3
b1 E
0F
#180000
0&
#180536
b0 !
b0 4
06
05
09
b0 3
b0 E
1F
#181704
b10 !
b10 4
18
17
b10 3
b10 E
0F
#182872
b11 !
b11 4
16
15
19
b11 3
b11 E
1F
#184040
b1 !
b1 4
08
07
b1 3
b1 E
0F
#185208
b0 !
b0 4
06
05
09
b0 3
b0 E
1F
#186376
b10 !
b10 4
18
17
b10 3
b10 E
0F
#187544
b11 !
b11 4
16
15
19
b11 3
b11 E
1F
#188712
b1 !
b1 4
08
07
b1 3
b1 E
0F
#189880
b0 !
b0 4
06
05
09
b0 3
b0 E
1F
#190000
1&
#191048
b10 !
b10 4
18
17
b10 3
b10 E
0F
#192216
b11 !
b11 4
16
15
19
b11 3
b11 E
1F
#193384
b1 !
b1 4
08
07
b1 3
b1 E
0F
#194552
b0 !
b0 4
06
05
09
b0 3
b0 E
1F
#195720
b10 !
b10 4
18
17
b10 3
b10 E
0F
#196888
b11 !
b11 4
16
15
19
b11 3
b11 E
1F
#198056
b1 !
b1 4
08
07
b1 3
b1 E
0F
#199224
b0 !
b0 4
06
05
09
b0 3
b0 E
1F
#200000
0&
#200392
b10 !
b10 4
18
17
b10 3
b10 E
0F
#201560
b11 !
b11 4
16
15
19
b11 3
b11 E
1F
#202728
b1 !
b1 4
08
07
b1 3
b1 E
0F
#203896
b0 !
b0 4
06
05
09
b0 3
b0 E
1F
#205064
b10 !
b10 4
18
17
b10 3
b10 E
0F
#206232
b11 !
b11 4
16
15
19
b11 3
b11 E
1F
#207400
b1 !
b1 4
08
07
b1 3
b1 E
0F
#208568
b0 !
b0 4
06
05
09
b0 3
b0 E
1F
#209736
b10 !
b10 4
18
17
b10 3
b10 E
0F
#210000
1&
#210904
b11 !
b11 4
16
15
19
b11 3
b11 E
1F
#212072
b1 !
b1 4
08
07
b1 3
b1 E
0F
#213240
b0 !
b0 4
06
05
09
b0 3
b0 E
1F
#214408
b10 !
b10 4
18
17
b10 3
b10 E
0F
#215576
b11 !
b11 4
16
15
19
b11 3
b11 E
1F
#216744
b1 !
b1 4
08
07
b1 3
b1 E
0F
#217912
b0 !
b0 4
06
05
09
b0 3
b0 E
1F
#219080
b10 !
b10 4
18
17
b10 3
b10 E
0F
#220000
0&
#220248
b11 !
b11 4
16
15
19
b11 3
b11 E
1F
#221416
b1 !
b1 4
08
07
b1 3
b1 E
0F
#222584
b0 !
b0 4
06
05
09
b0 3
b0 E
1F
#223752
b10 !
b10 4
18
17
b10 3
b10 E
0F
#224920
b11 !
b11 4
16
15
19
b11 3
b11 E
1F
#226088
b1 !
b1 4
08
07
b1 3
b1 E
0F
#227256
b0 !
b0 4
06
05
09
b0 3
b0 E
1F
#228424
b10 !
b10 4
18
17
b10 3
b10 E
0F
#229592
b11 !
b11 4
16
15
19
b11 3
b11 E
1F
#230000
1&
#230760
b1 !
b1 4
08
07
b1 3
b1 E
0F
#231928
b0 !
b0 4
06
05
09
b0 3
b0 E
1F
#233096
b10 !
b10 4
18
17
b10 3
b10 E
0F
#234264
b11 !
b11 4
16
15
19
b11 3
b11 E
1F
#235432
b1 !
b1 4
08
07
b1 3
b1 E
0F
#236600
b0 !
b0 4
06
05
09
b0 3
b0 E
1F
#237768
b10 !
b10 4
18
17
b10 3
b10 E
0F
#238936
b11 !
b11 4
16
15
19
b11 3
b11 E
1F
#240000
0&
#240104
b1 !
b1 4
08
07
b1 3
b1 E
0F
#241272
b0 !
b0 4
06
05
09
b0 3
b0 E
1F
#242440
b10 !
b10 4
18
17
b10 3
b10 E
0F
#243608
b11 !
b11 4
16
15
19
b11 3
b11 E
1F
#244776
b1 !
b1 4
08
07
b1 3
b1 E
0F
#245944
b0 !
b0 4
06
05
09
b0 3
b0 E
1F
#247112
b10 !
b10 4
18
17
b10 3
b10 E
0F
#248280
b11 !
b11 4
16
15
19
b11 3
b11 E
1F
#249448
b1 !
b1 4
08
07
b1 3
b1 E
0F
#250000
r1.18 G
b1 D
b1 1
b1 C
1&
b1 %
b1 .
b0 *
#250616
b0 !
b0 4
06
05
09
b0 3
b0 E
1F
#251796
b10 !
b10 4
18
17
b10 3
b10 E
0F
#252976
b11 !
b11 4
16
15
19
b11 3
b11 E
1F
#254156
b1 !
b1 4
08
07
b1 3
b1 E
0F
#255336
b0 !
b0 4
06
05
09
b0 3
b0 E
1F
#256516
b10 !
b10 4
18
17
b10 3
b10 E
0F
#257696
b11 !
b11 4
16
15
19
b11 3
b11 E
1F
#258876
b1 !
b1 4
08
07
b1 3
b1 E
0F
#260000
0&
#260056
b0 !
b0 4
06
05
09
b0 3
b0 E
1F
#261236
b10 !
b10 4
18
17
b10 3
b10 E
0F
#262416
b11 !
b11 4
16
15
19
b11 3
b11 E
1F
#263596
b1 !
b1 4
08
07
b1 3
b1 E
0F
#264776
b0 !
b0 4
06
05
09
b0 3
b0 E
1F
#265956
b10 !
b10 4
18
17
b10 3
b10 E
0F
#267136
b11 !
b11 4
16
15
19
b11 3
b11 E
1F
#268316
b1 !
b1 4
08
07
b1 3
b1 E
0F
#269496
b0 !
b0 4
06
05
09
b0 3
b0 E
1F
#270000
1&
#270676
b10 !
b10 4
18
17
b10 3
b10 E
0F
#271856
b11 !
b11 4
16
15
19
b11 3
b11 E
1F
#273036
b1 !
b1 4
08
07
b1 3
b1 E
0F
#274216
b0 !
b0 4
06
05
09
b0 3
b0 E
1F
#275396
b10 !
b10 4
18
17
b10 3
b10 E
0F
#276576
b11 !
b11 4
16
15
19
b11 3
b11 E
1F
#277756
b1 !
b1 4
08
07
b1 3
b1 E
0F
#278936
b0 !
b0 4
06
05
09
b0 3
b0 E
1F
#280000
0&
#280116
b10 !
b10 4
18
17
b10 3
b10 E
0F
#281296
b11 !
b11 4
16
15
19
b11 3
b11 E
1F
#282476
b1 !
b1 4
08
07
b1 3
b1 E
0F
#283656
b0 !
b0 4
06
05
09
b0 3
b0 E
1F
#284836
b10 !
b10 4
18
17
b10 3
b10 E
0F
#286016
b11 !
b11 4
16
15
19
b11 3
b11 E
1F
#287196
b1 !
b1 4
08
07
b1 3
b1 E
0F
#288376
b0 !
b0 4
06
05
09
b0 3
b0 E
1F
#289556
b10 !
b10 4
18
17
b10 3
b10 E
0F
#290000
1&
#290736
b11 !
b11 4
16
15
19
b11 3
b11 E
1F
#291916
b1 !
b1 4
08
07
b1 3
b1 E
0F
#293096
b0 !
b0 4
06
05
09
b0 3
b0 E
1F
#294276
b10 !
b10 4
18
17
b10 3
b10 E
0F
#295456
b11 !
b11 4
16
15
19
b11 3
b11 E
1F
#296636
b1 !
b1 4
08
07
b1 3
b1 E
0F
#297816
b0 !
b0 4
06
05
09
b0 3
b0 E
1F
#298996
b10 !
b10 4
18
17
b10 3
b10 E
0F
#300000
0&
#300176
b11 !
b11 4
16
15
19
b11 3
b11 E
1F
#301356
b1 !
b1 4
08
07
b1 3
b1 E
0F
#302536
b0 !
b0 4
06
05
09
b0 3
b0 E
1F
#303716
b10 !
b10 4
18
17
b10 3
b10 E
0F
#304896
b11 !
b11 4
16
15
19
b11 3
b11 E
1F
#306076
b1 !
b1 4
08
07
b1 3
b1 E
0F
#307256
b0 !
b0 4
06
05
09
b0 3
b0 E
1F
#308436
b10 !
b10 4
18
17
b10 3
b10 E
0F
#309616
b11 !
b11 4
16
15
19
b11 3
b11 E
1F
#310000
1&
#310796
b1 !
b1 4
08
07
b1 3
b1 E
0F
#311976
b0 !
b0 4
06
05
09
b0 3
b0 E
1F
#313156
b10 !
b10 4
18
17
b10 3
b10 E
0F
#314336
b11 !
b11 4
16
15
19
b11 3
b11 E
1F
#315516
b1 !
b1 4
08
07
b1 3
b1 E
0F
#316696
b0 !
b0 4
06
05
09
b0 3
b0 E
1F
#317876
b10 !
b10 4
18
17
b10 3
b10 E
0F
#319056
b11 !
b11 4
16
15
19
b11 3
b11 E
1F
#320000
0&
#320236
b1 !
b1 4
08
07
b1 3
b1 E
0F
#321416
b0 !
b0 4
06
05
09
b0 3
b0 E
1F
#322596
b10 !
b10 4
18
17
b10 3
b10 E
0F
#323776
b11 !
b11 4
16
15
19
b11 3
b11 E
1F
#324956
b1 !
b1 4
08
07
b1 3
b1 E
0F
#326136
b0 !
b0 4
06
05
09
b0 3
b0 E
1F
#327316
b10 !
b10 4
18
17
b10 3
b10 E
0F
#328496
b11 !
b11 4
16
15
19
b11 3
b11 E
1F
#329676
b1 !
b1 4
08
07
b1 3
b1 E
0F
#330000
1&
#330856
b0 !
b0 4
06
05
09
b0 3
b0 E
1F
#332036
b10 !
b10 4
18
17
b10 3
b10 E
0F
#333216
b11 !
b11 4
16
15
19
b11 3
b11 E
1F
#334396
b1 !
b1 4
08
07
b1 3
b1 E
0F
#335576
b0 !
b0 4
06
05
09
b0 3
b0 E
1F
#336756
b10 !
b10 4
18
17
b10 3
b10 E
0F
#337936
b11 !
b11 4
16
15
19
b11 3
b11 E
1F
#339116
b1 !
b1 4
08
07
b1 3
b1 E
0F
#340000
0&
#340296
b0 !
b0 4
06
05
09
b0 3
b0 E
1F
#341476
b10 !
b10 4
18
17
b10 3
b10 E
0F
#342656
b11 !
b11 4
16
15
19
b11 3
b11 E
1F
#343836
b1 !
b1 4
08
07
b1 3
b1 E
0F
#345016
b0 !
b0 4
06
05
09
b0 3
b0 E
1F
#346196
b10 !
b10 4
18
17
b10 3
b10 E
0F
#347376
b11 !
b11 4
16
15
19
b11 3
b11 E
1F
#348556
b1 !
b1 4
08
07
b1 3
b1 E
0F
#349736
b0 !
b0 4
06
05
09
b0 3
b0 E
1F
#350000
1&
#350916
r350.916 ,
b10 !
b10 4
18
17
b10 3
b10 E
0F
#352096
b11 !
b11 4
16
15
19
b11 3
b11 E
1F
#353276
b1 !
b1 4
08
07
b1 3
b1 E
0F
#354456
b0 !
b0 4
06
05
09
b0 3
b0 E
1F
#355636
r1.192 G
b10 D
b11 1
b11 C
b11 %
b11 .
b1 *
r211.8644067796598 )
r4.720000000000027 (
r355.636 +
b10 !
b10 4
18
17
b10 3
b10 E
0F
#356816
b11 !
b11 4
16
15
19
b11 3
b11 E
1F
#358008
b1 !
b1 4
08
07
b1 3
b1 E
0F
#359200
b0 !
b0 4
06
05
09
b0 3
b0 E
1F
#360000
0&
#360392
b10 !
b10 4
18
17
b10 3
b10 E
0F
#361584
b11 !
b11 4
16
15
19
b11 3
b11 E
1F
#362776
b1 !
b1 4
08
07
b1 3
b1 E
0F
#363968
b0 !
b0 4
06
05
09
b0 3
b0 E
1F
#365160
b10 !
b10 4
18
17
b10 3
b10 E
0F
#366352
b11 !
b11 4
16
15
19
b11 3
b11 E
1F
#367544
b1 !
b1 4
08
07
b1 3
b1 E
0F
#368736
b0 !
b0 4
06
05
09
b0 3
b0 E
1F
#369928
b10 !
b10 4
18
17
b10 3
b10 E
0F
#370000
1&
#371120
b11 !
b11 4
16
15
19
b11 3
b11 E
1F
#372312
b1 !
b1 4
08
07
b1 3
b1 E
0F
#373504
b0 !
b0 4
06
05
09
b0 3
b0 E
1F
#374696
b10 !
b10 4
18
17
b10 3
b10 E
0F
#375888
b11 !
b11 4
16
15
19
b11 3
b11 E
1F
#377080
b1 !
b1 4
08
07
b1 3
b1 E
0F
#378272
b0 !
b0 4
06
05
09
b0 3
b0 E
1F
#379464
b10 !
b10 4
18
17
b10 3
b10 E
0F
#380000
0&
#380656
b11 !
b11 4
16
15
19
b11 3
b11 E
1F
#381848
b1 !
b1 4
08
07
b1 3
b1 E
0F
#383040
b0 !
b0 4
06
05
09
b0 3
b0 E
1F
#384232
b10 !
b10 4
18
17
b10 3
b10 E
0F
#385424
b11 !
b11 4
16
15
19
b11 3
b11 E
1F
#386616
b1 !
b1 4
08
07
b1 3
b1 E
0F
#387808
b0 !
b0 4
06
05
09
b0 3
b0 E
1F
#389000
b10 !
b10 4
18
17
b10 3
b10 E
0F
#390000
1&
#390192
b11 !
b11 4
16
15
19
b11 3
b11 E
1F
#391384
b1 !
b1 4
08
07
b1 3
b1 E
0F
#392576
b0 !
b0 4
06
05
09
b0 3
b0 E
1F
#393768
b10 !
b10 4
18
17
b10 3
b10 E
0F
#394960
b11 !
b11 4
16
15
19
b11 3
b11 E
1F
#396152
b1 !
b1 4
08
07
b1 3
b1 E
0F
#397344
b0 !
b0 4
06
05
09
b0 3
b0 E
1F
#398536
b10 !
b10 4
18
17
b10 3
b10 E
0F
#399728
b11 !
b11 4
16
15
19
b11 3
b11 E
1F
#400000
0&
#400920
b1 !
b1 4
08
07
b1 3
b1 E
0F
#402112
b0 !
b0 4
06
05
09
b0 3
b0 E
1F
#403304
b10 !
b10 4
18
17
b10 3
b10 E
0F
#404496
b11 !
b11 4
16
15
19
b11 3
b11 E
1F
#405688
b1 !
b1 4
08
07
b1 3
b1 E
0F
#406880
b0 !
b0 4
06
05
09
b0 3
b0 E
1F
#408072
b10 !
b10 4
18
17
b10 3
b10 E
0F
#409264
b11 !
b11 4
16
15
19
b11 3
b11 E
1F
#410000
1&
#410456
b1 !
b1 4
08
07
b1 3
b1 E
0F
#411648
b0 !
b0 4
06
05
09
b0 3
b0 E
1F
#412840
b10 !
b10 4
18
17
b10 3
b10 E
0F
#414032
b11 !
b11 4
16
15
19
b11 3
b11 E
1F
#415224
b1 !
b1 4
08
07
b1 3
b1 E
0F
#416416
b0 !
b0 4
06
05
09
b0 3
b0 E
1F
#417608
b10 !
b10 4
18
17
b10 3
b10 E
0F
#418800
b11 !
b11 4
16
15
19
b11 3
b11 E
1F
#419992
b1 !
b1 4
08
07
b1 3
b1 E
0F
#420000
0&
#421184
b0 !
b0 4
06
05
09
b0 3
b0 E
1F
#422376
b10 !
b10 4
18
17
b10 3
b10 E
0F
#423568
b11 !
b11 4
16
15
19
b11 3
b11 E
1F
#424760
b1 !
b1 4
08
07
b1 3
b1 E
0F
#425952
b0 !
b0 4
06
05
09
b0 3
b0 E
1F
#427144
b10 !
b10 4
18
17
b10 3
b10 E
0F
#428336
b11 !
b11 4
16
15
19
b11 3
b11 E
1F
#429528
b1 !
b1 4
08
07
b1 3
b1 E
0F
#430000
1&
#430720
b0 !
b0 4
06
05
09
b0 3
b0 E
1F
#431912
b10 !
b10 4
18
17
b10 3
b10 E
0F
#433104
b11 !
b11 4
16
15
19
b11 3
b11 E
1F
#434296
b1 !
b1 4
08
07
b1 3
b1 E
0F
#435488
b0 !
b0 4
06
05
09
b0 3
b0 E
1F
#436680
b10 !
b10 4
18
17
b10 3
b10 E
0F
#437872
b11 !
b11 4
16
15
19
b11 3
b11 E
1F
#439064
b1 !
b1 4
08
07
b1 3
b1 E
0F
#440000
0&
#440256
b0 !
b0 4
06
05
09
b0 3
b0 E
1F
#441448
b10 !
b10 4
18
17
b10 3
b10 E
0F
#442640
b11 !
b11 4
16
15
19
b11 3
b11 E
1F
#443832
b1 !
b1 4
08
07
b1 3
b1 E
0F
#445024
b0 !
b0 4
06
05
09
b0 3
b0 E
1F
#446216
b10 !
b10 4
18
17
b10 3
b10 E
0F
#447408
b11 !
b11 4
16
15
19
b11 3
b11 E
1F
#448600
b1 !
b1 4
08
07
b1 3
b1 E
0F
#449792
b0 !
b0 4
06
05
09
b0 3
b0 E
1F
#450000
1&
#450984
b10 !
b10 4
18
17
b10 3
b10 E
0F
#452176
b11 !
b11 4
16
15
19
b11 3
b11 E
1F
#453368
b1 !
b1 4
08
07
b1 3
b1 E
0F
#454560
b0 !
b0 4
06
05
09
b0 3
b0 E
1F
#455752
r455.752 ,
b10 !
b10 4
18
17
b10 3
b10 E
0F
#456944
b11 !
b11 4
16
15
19
b11 3
b11 E
1F
#458136
b1 !
b1 4
08
07
b1 3
b1 E
0F
#459328
b0 !
b0 4
06
05
09
b0 3
b0 E
1F
#460000
0&
#460520
r1.204 G
b11 D
b111 1
b111 C
b111 %
b111 .
b10 *
r209.7315436241623 )
r4.767999999999972 (
r460.52 +
b10 !
b10 4
18
17
b10 3
b10 E
0F
#461712
b11 !
b11 4
16
15
19
b11 3
b11 E
1F
#462916
b1 !
b1 4
08
07
b1 3
b1 E
0F
#464120
b0 !
b0 4
06
05
09
b0 3
b0 E
1F
#465324
b10 !
b10 4
18
17
b10 3
b10 E
0F
#466528
b11 !
b11 4
16
15
19
b11 3
b11 E
1F
#467732
b1 !
b1 4
08
07
b1 3
b1 E
0F
#468936
b0 !
b0 4
06
05
09
b0 3
b0 E
1F
#470000
1&
#470140
b10 !
b10 4
18
17
b10 3
b10 E
0F
#471344
b11 !
b11 4
16
15
19
b11 3
b11 E
1F
#472548
b1 !
b1 4
08
07
b1 3
b1 E
0F
#473752
b0 !
b0 4
06
05
09
b0 3
b0 E
1F
#474956
b10 !
b10 4
18
17
b10 3
b10 E
0F
#476160
b11 !
b11 4
16
15
19
b11 3
b11 E
1F
#477364
b1 !
b1 4
08
07
b1 3
b1 E
0F
#478568
b0 !
b0 4
06
05
09
b0 3
b0 E
1F
#479772
b10 !
b10 4
18
17
b10 3
b10 E
0F
#480000
0&
#480976
b11 !
b11 4
16
15
19
b11 3
b11 E
1F
#482180
b1 !
b1 4
08
07
b1 3
b1 E
0F
#483384
b0 !
b0 4
06
05
09
b0 3
b0 E
1F
#484588
b10 !
b10 4
18
17
b10 3
b10 E
0F
#485792
b11 !
b11 4
16
15
19
b11 3
b11 E
1F
#486996
b1 !
b1 4
08
07
b1 3
b1 E
0F
#488200
b0 !
b0 4
06
05
09
b0 3
b0 E
1F
#489404
b10 !
b10 4
18
17
b10 3
b10 E
0F
#490000
1&
#490608
b11 !
b11 4
16
15
19
b11 3
b11 E
1F
#491812
b1 !
b1 4
08
07
b1 3
b1 E
0F
#493016
b0 !
b0 4
06
05
09
b0 3
b0 E
1F
#494220
b10 !
b10 4
18
17
b10 3
b10 E
0F
#495424
b11 !
b11 4
16
15
19
b11 3
b11 E
1F
#496628
b1 !
b1 4
08
07
b1 3
b1 E
0F
#497832
b0 !
b0 4
06
05
09
b0 3
b0 E
1F
#499036
b10 !
b10 4
18
17
b10 3
b10 E
0F
#500000
0&
#500240
b11 !
b11 4
16
15
19
b11 3
b11 E
1F
#501444
b1 !
b1 4
08
07
b1 3
b1 E
0F
#502648
b0 !
b0 4
06
05
09
b0 3
b0 E
1F
#503852
b10 !
b10 4
18
17
b10 3
b10 E
0F
#505056
b11 !
b11 4
16
15
19
b11 3
b11 E
1F
#506260
b1 !
b1 4
08
07
b1 3
b1 E
0F
#507464
b0 !
b0 4
06
05
09
b0 3
b0 E
1F
#508668
b10 !
b10 4
18
17
b10 3
b10 E
0F
#509872
b11 !
b11 4
16
15
19
b11 3
b11 E
1F
#510000
1&
#511076
b1 !
b1 4
08
07
b1 3
b1 E
0F
#512280
b0 !
b0 4
06
05
09
b0 3
b0 E
1F
#513484
b10 !
b10 4
18
17
b10 3
b10 E
0F
#514688
b11 !
b11 4
16
15
19
b11 3
b11 E
1F
#515892
b1 !
b1 4
08
07
b1 3
b1 E
0F
#517096
b0 !
b0 4
06
05
09
b0 3
b0 E
1F
#518300
b10 !
b10 4
18
17
b10 3
b10 E
0F
#519504
b11 !
b11 4
16
15
19
b11 3
b11 E
1F
#520000
0&
#520708
b1 !
b1 4
08
07
b1 3
b1 E
0F
#521912
b0 !
b0 4
06
05
09
b0 3
b0 E
1F
#523116
b10 !
b10 4
18
17
b10 3
b10 E
0F
#524320
b11 !
b11 4
16
15
19
b11 3
b11 E
1F
