waves/waves_top_reset.vcd
$date
	Thu Jul 10 11:20:46 2025
$end
$version
	Icarus Verilog
$end
$timescale
	1ps
$end
$scope module tb_top_reset $end
$var wire 2 ! clockp [1:0] $end
$var reg 1 " dco $end
$var reg 5 # div [4:0] $end
$var reg 1 $ enable $end
$var reg 26 % ext_trim [25:0] $end
$var reg 1 & osc $end
$var reg 1 ' resetb $end
$var real 1 ( T $end
$var real 1 ) t_end $end
$var real 1 * t_start $end
$scope module dut $end
$var wire 1 " dco $end
$var wire 5 + div [4:0] $end
$var wire 1 $ enable $end
$var wire 26 , ext_trim [25:0] $end
$var wire 1 - ireset $end
$var wire 1 & osc $end
$var wire 1 ' resetb $end
$var wire 26 . otrim [25:0] $end
$var wire 26 / itrim [25:0] $end
$var wire 1 0 creset $end
$var wire 2 1 clockp_buffer_in [1:0] $end
$var wire 2 2 clockp [1:0] $end
$scope module clockp_buffer_0 $end
$var wire 1 3 I $end
$var wire 1 4 Z $end
$scope module gf180mcu_fd_sc_mcu7t5v0__clkbuf_inst $end
$var wire 1 3 I $end
$var wire 1 4 Z $end
$upscope $end
$upscope $end
$scope module clockp_buffer_1 $end
$var wire 1 5 I $end
$var wire 1 6 Z $end
$scope module gf180mcu_fd_sc_mcu7t5v0__clkbuf_inst $end
$var wire 1 5 I $end
$var wire 1 6 Z $end
$upscope $end
$upscope $end
$scope module pll_control $end
$var wire 1 7 clock $end
$var wire 5 8 div [4:0] $end
$var wire 1 & osc $end
$var wire 1 0 reset $end
$var wire 26 9 trim [25:0] $end
$var wire 5 : tint [4:0] $end
$var wire 6 ; sum [5:0] $end
$var reg 5 < count0 [4:0] $end
$var reg 5 = count1 [4:0] $end
$var reg 3 > oscbuf [2:0] $end
$var reg 3 ? prep [2:0] $end
$var reg 7 @ tval [6:0] $end
$upscope $end
$scope module ringosc $end
$var wire 1 - reset $end
$var wire 26 A trim [25:0] $end
$var wire 6 B bcount [5:0] $end
$var reg 2 C clockp [1:0] $end
$var reg 1 D hiclock $end
$var real 1 E delay $end
$upscope $end
$upscope $end
$scope task chu_ky $end
$upscope $end
$upscope $end
$enddefinitions $end
#0
$dumpvars
r1.168 E
0D
b0 C
b0 B
b0 A
b0 @
b0 ?
b0 >
b0 =
b0 <
b0 ;
b0 :
b0 9
b1000 8
07
06
05
04
03
b0 2
b0 1
10
b0 /
b0 .
1-
b0 ,
b1000 +
r0 *
r0 )
r0 (
0'
0&
b0 %
1$
b1000 #
0"
b0 !
$end
#3000
1D
#4168
0D
#5336
1D
#6504
0D
#7672
1D
#8840
0D
#10000
1&
#10008
1D
#11176
0D
#12344
1D
#13512
0D
#14680
1D
#15848
0D
#17016
1D
#18184
0D
#19352
1D
#20000
0&
#20520
0D
#21688
1D
#22856
0D
#24024
1D
#25192
0D
#26360
1D
#27528
0D
#28696
1D
#29864
0D
#30000
1&
#31032
1D
#32200
0D
#33368
1D
#34536
0D
#35704
1D
#36872
0D
#38040
1D
#39208
0D
#40000
0&
#40376
1D
#41544
0D
#42712
1D
#43880
0D
#45048
1D
#46216
0D
#47384
1D
#48552
0D
#49720
1D
#50000
00
0-
1'
1&
#50888
b10 !
b10 2
16
15
b10 1
b10 C
0D
#52056
b1 ;
b1 <
b1 >
b11 !
b11 2
14
13
17
b11 1
b11 C
1D
#53224
b1 !
b1 2
06
05
b1 1
b1 C
0D
#54392
b0 !
b0 2
04
03
07
b0 1
b0 C
1D
#55560
b10 !
b10 2
16
15
b10 1
b10 C
0D
#56728
b10 ;
b10 <
b11 >
b11 !
b11 2
14
13
17
b11 1
b11 C
1D
#57896
b1 !
b1 2
06
05
b1 1
b1 C
0D
#59064
b0 !
b0 2
04
03
07
b0 1
b0 C
1D
#60000
0&
#60232
b10 !
b10 2
16
15
b10 1
b10 C
0D
#61400
b1 ?
b1 <
b11 ;
b10 =
b110 >
b11 !
b11 2
14
13
17
b11 1
b11 C
1D
#62568
b1 !
b1 2
06
05
b1 1
b1 C
0D
#63736
b0 !
b0 2
04
03
07
b0 1
b0 C
1D
#64904
b10 !
b10 2
16
15
b10 1
b10 C
0D
#66072
b100 ;
b10 <
b100 >
b11 !
b11 2
14
13
17
b11 1
b11 C
1D
#67240
b1 !
b1 2
06
05
b1 1
b1 C
0D
#68408
b0 !
b0 2
04
03
07
b0 1
b0 C
1D
#69576
b10 !
b10 2
16
15
b10 1
b10 C
0D
#70000
1&
#70744
b11 ?
b11 ;
b1 <
b1 >
b11 !
b11 2
14
13
17
b11 1
b11 C
1D
#71912
b1 !
b1 2
06
05
b1 1
b1 C
0D
#73080
b0 !
b0 2
04
03
07
b0 1
b0 C
1D
#74248
b10 !
b10 2
16
15
b10 1
b10 C
0D
#75416
b100 ;
b10 <
b11 >
b11 !
b11 2
14
13
17
b11 1
b11 C
1D
#76584
b1 !
b1 2
06
05
b1 1
b1 C
0D
#77752
b0 !
b0 2
04
03
07
b0 1
b0 C
1D
#78920
b10 !
b10 2
16
15
b10 1
b10 C
0D
#80000
0&
#80088
b111 ?
b11 ;
b1 <
b110 >
b11 !
b11 2
14
13
17
b11 1
b11 C
1D
#81256
b1 !
b1 2
06
05
b1 1
b1 C
0D
#82424
b0 !
b0 2
04
03
07
b0 1
b0 C
1D
#83592
b10 !
b10 2
16
15
b10 1
b10 C
0D
#84760
b100 ;
b10 <
b100 >
b11 !
b11 2
14
13
17
b11 1
b11 C
1D
#85928
b1 !
b1 2
06
05
b1 1
b1 C
0D
#87096
b0 !
b0 2
04
03
07
b0 1
b0 C
1D
#88264
b10 !
b10 2
16
15
b10 1
b10 C
0D
#89432
b11 ;
b1 <
b0 >
b11 !
b11 2
14
13
17
b11 1
b11 C
1D
#90000
1&
#90600
b1 !
b1 2
06
05
b1 1
b1 C
0D
#91768
b0 !
b0 2
04
03
07
b0 1
b0 C
1D
#92936
b10 !
b10 2
16
15
b10 1
b10 C
0D
#94104
b100 ;
b10 <
b1 >
b11 !
b11 2
14
13
17
b11 1
b11 C
1D
#95272
b1 !
b1 2
06
05
b1 1
b1 C
0D
#96440
b0 !
b0 2
04
03
07
b0 1
b0 C
1D
#97608
b10 !
b10 2
16
15
b10 1
b10 C
0D
#98776
b101 ;
b11 <
b11 >
b11 !
b11 2
14
13
17
b11 1
b11 C
1D
#99944
b1 !
b1 2
06
05
b1 1
b1 C
0D
#100000
0&
#101112
b0 !
b0 2
04
03
07
b0 1
b0 C
1D
#102280
b10 !
b10 2
16
15
b10 1
b10 C
0D
#103448
b1 <
b100 ;
b11 =
b110 >
b11 !
b11 2
14
13
17
b11 1
b11 C
1D
#104616
b1 !
b1 2
06
05
b1 1
b1 C
0D
#105784
b0 !
b0 2
04
03
07
b0 1
b0 C
1D
#106952
b10 !
b10 2
16
15
b10 1
b10 C
0D
#108120
b101 ;
b10 <
b100 >
b11 !
b11 2
14
13
17
b11 1
b11 C
1D
#109288
b1 !
b1 2
06
05
b1 1
b1 C
0D
#110000
1&
#110456
b0 !
b0 2
04
03
07
b0 1
b0 C
1D
#111624
b10 !
b10 2
16
15
b10 1
b10 C
0D
#112792
b1 <
b11 ;
b10 =
b1 >
b11 !
b11 2
14
13
17
b11 1
b11 C
1D
#113960
b1 !
b1 2
06
05
b1 1
b1 C
0D
#115128
b0 !
b0 2
04
03
07
b0 1
b0 C
1D
#116296
b10 !
b10 2
16
15
b10 1
b10 C
0D
#117464
b100 ;
b10 <
b11 >
b11 !
b11 2
14
13
17
b11 1
b11 C
1D
#118632
b1 !
b1 2
06
05
b1 1
b1 C
0D
#119800
b0 !
b0 2
04
03
07
b0 1
b0 C
1D
#120000
0&
#120968
b10 !
b10 2
16
15
b10 1
b10 C
0D
#122136
b11 ;
b1 <
b110 >
b11 !
b11 2
14
13
17
b11 1
b11 C
1D
#123304
b1 !
b1 2
06
05
b1 1
b1 C
0D
#124472
b0 !
b0 2
04
03
07
b0 1
b0 C
1D
#125640
b10 !
b10 2
16
15
b10 1
b10 C
0D
#126808
b100 ;
b10 <
b100 >
b11 !
b11 2
14
13
17
b11 1
b11 C
1D
#127976
b1 !
b1 2
06
05
b1 1
b1 C
0D
#129144
b0 !
b0 2
04
03
07
b0 1
b0 C
1D
#130000
1&
#130312
b10 !
b10 2
16
15
b10 1
b10 C
0D
#131480
b11 ;
b1 <
b1 >
b11 !
b11 2
14
13
17
b11 1
b11 C
1D
#132648
b1 !
b1 2
06
05
b1 1
b1 C
0D
#133816
b0 !
b0 2
04
03
07
b0 1
b0 C
1D
#134984
b10 !
b10 2
16
15
b10 1
b10 C
0D
#136152
b100 ;
b10 <
b11 >
b11 !
b11 2
14
13
17
b11 1
b11 C
1D
#137320
b1 !
b1 2
06
05
b1 1
b1 C
0D
#138488
b0 !
b0 2
04
03
07
b0 1
b0 C
1D
#139656
b10 !
b10 2
16
15
b10 1
b10 C
0D
#140000
0&
#140824
b11 ;
b1 <
b110 >
b11 !
b11 2
14
13
17
b11 1
b11 C
1D
#141992
b1 !
b1 2
06
05
b1 1
b1 C
0D
#143160
b0 !
b0 2
04
03
07
b0 1
b0 C
1D
#144328
b10 !
b10 2
16
15
b10 1
b10 C
0D
#145496
b100 ;
b10 <
b100 >
b11 !
b11 2
14
13
17
b11 1
b11 C
1D
#146664
b1 !
b1 2
06
05
b1 1
b1 C
0D
#147832
b0 !
b0 2
04
03
07
b0 1
b0 C
1D
#149000
b10 !
b10 2
16
15
b10 1
b10 C
0D
#150000
1&
#150168
b11 ;
b1 <
b1 >
b11 !
b11 2
14
13
17
b11 1
b11 C
1D
#151336
b1 !
b1 2
06
05
b1 1
b1 C
0D
#152504
b0 !
b0 2
04
03
07
b0 1
b0 C
1D
#153672
b10 !
b10 2
16
15
b10 1
b10 C
0D
#154840
b100 ;
b10 <
b11 >
b11 !
b11 2
14
13
17
b11 1
b11 C
1D
#156008
b1 !
b1 2
06
05
b1 1
b1 C
0D
#157176
b0 !
b0 2
04
03
07
b0 1
b0 C
1D
#158344
b10 !
b10 2
16
15
b10 1
b10 C
0D
#159512
b11 ;
b1 <
b111 >
b11 !
b11 2
14
13
17
b11 1
b11 C
1D
#160000
0&
#160680
b1 !
b1 2
06
05
b1 1
b1 C
0D
#161848
b0 !
b0 2
04
03
07
b0 1
b0 C
1D
#163016
b10 !
b10 2
16
15
b10 1
b10 C
0D
#164184
b100 ;
b10 <
b110 >
b11 !
b11 2
14
13
17
b11 1
b11 C
1D
#165352
b1 !
b1 2
06
05
b1 1
b1 C
0D
#166520
b0 !
b0 2
04
03
07
b0 1
b0 C
1D
#167688
b10 !
b10 2
16
15
b10 1
b10 C
0D
#168856
b101 ;
b11 <
b100 >
b11 !
b11 2
14
13
17
b11 1
b11 C
1D
#170000
1&
#170024
b1 !
b1 2
06
05
b1 1
b1 C
0D
#171192
b0 !
b0 2
04
03
07
b0 1
b0 C
1D
#172360
b10 !
b10 2
16
15
b10 1
b10 C
0D
#173528
b1 <
b100 ;
b11 =
b1 >
b11 !
b11 2
14
13
17
b11 1
b11 C
1D
#174696
b1 !
b1 2
06
05
b1 1
b1 C
0D
#175864
b0 !
b0 2
04
03
07
b0 1
b0 C
1D
#177032
b10 !
b10 2
16
15
b10 1
b10 C
0D
#178200
b101 ;
b10 <
b11 >
b11 !
b11 2
14
13
17
b11 1
b11 C
1D
#179368
b1 !
b1 2
06
05
b1 1
b1 C
0D
#180000
0&
#180536
b0 !
b0 2
04
03
07
b0 1
b0 C
1D
#181704
b10 !
b10 2
16
15
b10 1
b10 C
0D
#182872
b1 <
b11 ;
b10 =
b110 >
b11 !
b11 2
14
13
17
b11 1
b11 C
1D
#184040
b1 !
b1 2
06
05
b1 1
b1 C
0D
#185208
b0 !
b0 2
04
03
07
b0 1
b0 C
1D
#186376
b10 !
b10 2
16
15
b10 1
b10 C
0D
#187544
b100 ;
b10 <
b100 >
b11 !
b11 2
14
13
17
b11 1
b11 C
1D
#188712
b1 !
b1 2
06
05
b1 1
b1 C
0D
#189880
b0 !
b0 2
04
03
07
b0 1
b0 C
1D
#190000
1&
#191048
b10 !
b10 2
16
15
b10 1
b10 C
0D
#192216
b11 ;
b1 <
b1 >
b11 !
b11 2
14
13
17
b11 1
b11 C
1D
#193384
b1 !
b1 2
06
05
b1 1
b1 C
0D
#194552
b0 !
b0 2
04
03
07
b0 1
b0 C
1D
#195720
b10 !
b10 2
16
15
b10 1
b10 C
0D
#196888
b100 ;
b10 <
b11 >
b11 !
b11 2
14
13
17
b11 1
b11 C
1D
#198056
b1 !
b1 2
06
05
b1 1
b1 C
0D
#199224
b0 !
b0 2
04
03
07
b0 1
b0 C
1D
#200000
0&
#200392
b10 !
b10 2
16
15
b10 1
b10 C
0D
#201560
b11 ;
b1 <
b110 >
b11 !
b11 2
14
13
17
b11 1
b11 C
1D
#202728
b1 !
b1 2
06
05
b1 1
b1 C
0D
#203896
b0 !
b0 2
04
03
07
b0 1
b0 C
1D
#205064
b10 !
b10 2
16
15
b10 1
b10 C
0D
#206232
b100 ;
b10 <
b100 >
b11 !
b11 2
14
13
17
b11 1
b11 C
1D
#207400
b1 !
b1 2
06
05
b1 1
b1 C
0D
#208568
b0 !
b0 2
04
03
07
b0 1
b0 C
1D
#209736
b10 !
b10 2
16
15
b10 1
b10 C
0D
#210000
1&
#210904
b11 ;
b1 <
b1 >
b11 !
b11 2
14
13
17
b11 1
b11 C
1D
#212072
b1 !
b1 2
06
05
b1 1
b1 C
0D
#213240
b0 !
b0 2
04
03
07
b0 1
b0 C
1D
#214408
b10 !
b10 2
16
15
b10 1
b10 C
0D
#215576
b100 ;
b10 <
b11 >
b11 !
b11 2
14
13
17
b11 1
b11 C
1D
#216744
b1 !
b1 2
06
05
b1 1
b1 C
0D
#217912
b0 !
b0 2
04
03
07
b0 1
b0 C
1D
#219080
b10 !
b10 2
16
15
b10 1
b10 C
0D
#220000
0&
#220248
b11 ;
b1 <
b110 >
b11 !
b11 2
14
13
17
b11 1
b11 C
1D
#221416
b1 !
b1 2
06
05
b1 1
b1 C
0D
#222584
b0 !
b0 2
04
03
07
b0 1
b0 C
1D
#223752
b10 !
b10 2
16
15
b10 1
b10 C
0D
#224920
b100 ;
b10 <
b100 >
b11 !
b11 2
14
13
17
b11 1
b11 C
1D
#226088
b1 !
b1 2
06
05
b1 1
b1 C
0D
#227256
b0 !
b0 2
04
03
07
b0 1
b0 C
1D
#228424
b10 !
b10 2
16
15
b10 1
b10 C
0D
#229592
b11 ;
b1 <
b0 >
b11 !
b11 2
14
13
17
b11 1
b11 C
1D
#230000
1&
#230760
b1 !
b1 2
06
05
b1 1
b1 C
0D
#231928
b0 !
b0 2
04
03
07
b0 1
b0 C
1D
#233096
b10 !
b10 2
16
15
b10 1
b10 C
0D
#234264
b100 ;
b10 <
b1 >
b11 !
b11 2
14
13
17
b11 1
b11 C
1D
#235432
b1 !
b1 2
06
05
b1 1
b1 C
0D
#236600
b0 !
b0 2
04
03
07
b0 1
b0 C
1D
#237768
b10 !
b10 2
16
15
b10 1
b10 C
0D
#238936
b101 ;
b11 <
b11 >
b11 !
b11 2
14
13
17
b11 1
b11 C
1D
#240000
0&
#240104
b1 !
b1 2
06
05
b1 1
b1 C
0D
#241272
b0 !
b0 2
04
03
07
b0 1
b0 C
1D
#242440
b10 !
b10 2
16
15
b10 1
b10 C
0D
#243608
b1 <
b100 ;
b11 =
b110 >
b11 !
b11 2
14
13
17
b11 1
b11 C
1D
#244776
b1 !
b1 2
06
05
b1 1
b1 C
0D
#245944
b0 !
b0 2
04
03
07
b0 1
b0 C
1D
#247112
b10 !
b10 2
16
15
b10 1
b10 C
0D
#248280
b101 ;
b10 <
b100 >
b11 !
b11 2
14
13
17
b11 1
b11 C
1D
#249448
b1 !
b1 2
06
05
b1 1
b1 C
0D
#250000
1&
#250616
b0 !
b0 2
04
03
07
b0 1
b0 C
1D
#251784
r251.784 *
b10 !
b10 2
16
15
b10 1
b10 C
0D
#252952
b1 <
b11 ;
b10 =
b1 >
b11 !
b11 2
14
13
17
b11 1
b11 C
1D
#254120
b1 !
b1 2
06
05
b1 1
b1 C
0D
#255288
b0 !
b0 2
04
03
07
b0 1
b0 C
1D
#256456
b0 =
b0 ;
b0 <
b0 ?
b0 >
10
1-
0$
r0 (
r256.456 )
b0 !
b0 2
06
05
b0 1
b0 C
0D
#257624
1D
#258792
0D
#259960
1D
#260000
0&
#261128
0D
#262296
1D
#263464
0D
#264632
1D
#265800
0D
#266968
1D
#268136
0D
#269304
1D
#270000
1&
#270472
0D
#271640
1D
#272808
0D
#273976
1D
#275144
0D
#276312
1D
#277480
0D
#278648
1D
#279816
0D
#280000
0&
#280984
1D
#282152
0D
#283320
1D
#284488
0D
#285656
1D
#286824
0D
#287992
1D
#289160
0D
#290000
1&
#290328
1D
#291496
0D
#292664
1D
#293832
0D
#295000
1D
#296168
0D
#297336
1D
#298504
0D
#299672
1D
#300000
0&
#300840
0D
#302008
1D
#303176
0D
#304344
1D
#305512
0D
#306456
00
0-
1$
#306680
b1 ;
b1 <
b1 !
b1 2
14
13
17
b1 1
b1 C
1D
#307848
b11 !
b11 2
16
15
b11 1
b11 C
0D
#309016
b10 !
b10 2
04
03
07
b10 1
b10 C
1D
#310000
1&
#310184
b0 !
b0 2
06
05
b0 1
b0 C
0D
#311352
b10 ;
b10 <
b1 >
b1 !
b1 2
14
13
17
b1 1
b1 C
1D
#312520
b11 !
b11 2
16
15
b11 1
b11 C
0D
#313688
b10 !
b10 2
04
03
07
b10 1
b10 C
1D
#314856
b0 !
b0 2
06
05
b0 1
b0 C
0D
#316024
b11 ;
b11 <
b11 >
b1 !
b1 2
14
13
17
b1 1
b1 C
1D
#317192
b11 !
b11 2
16
15
b11 1
b11 C
0D
#318360
b10 !
b10 2
04
03
07
b10 1
b10 C
1D
#319528
b0 !
b0 2
06
05
b0 1
b0 C
0D
#320000
0&
#320696
b1 ?
b1 <
b100 ;
b11 =
b110 >
b1 !
b1 2
14
13
17
b1 1
b1 C
1D
#321864
b11 !
b11 2
16
15
b11 1
b11 C
0D
#323032
b10 !
b10 2
04
03
07
b10 1
b10 C
1D
#324200
b0 !
b0 2
06
05
b0 1
b0 C
0D
#325368
b101 ;
b10 <
b100 >
b1 !
b1 2
14
13
17
b1 1
b1 C
1D
#326536
b11 !
b11 2
16
15
b11 1
b11 C
0D
#327704
b10 !
b10 2
04
03
07
b10 1
b10 C
1D
#328872
b0 !
b0 2
06
05
b0 1
b0 C
0D
#330000
1&
#330040
b11 ?
b1 <
b11 ;
b10 =
b1 >
b1 !
b1 2
14
13
17
b1 1
b1 C
1D
#331208
b11 !
b11 2
16
15
b11 1
b11 C
0D
#332376
b10 !
b10 2
04
03
07
b10 1
b10 C
1D
#333544
b0 !
b0 2
06
05
b0 1
b0 C
0D
#334712
b100 ;
b10 <
b11 >
b1 !
b1 2
14
13
17
b1 1
b1 C
1D
#335880
b11 !
b11 2
16
15
b11 1
b11 C
0D
#337048
b10 !
b10 2
04
03
07
b10 1
b10 C
1D
#338216
b0 !
b0 2
06
05
b0 1
b0 C
0D
#339384
b111 ?
b11 ;
b1 <
b111 >
b1 !
b1 2
14
13
17
b1 1
b1 C
1D
#340000
0&
#340552
b11 !
b11 2
16
15
b11 1
b11 C
0D
#341720
b10 !
b10 2
04
03
07
b10 1
b10 C
1D
#342888
b0 !
b0 2
06
05
b0 1
b0 C
0D
#344056
b100 ;
b10 <
b110 >
b1 !
b1 2
14
13
17
b1 1
b1 C
1D
#345224
b11 !
b11 2
16
15
b11 1
b11 C
0D
#346392
b10 !
b10 2
04
03
07
b10 1
b10 C
1D
#347560
b0 !
b0 2
06
05
b0 1
b0 C
0D
#348728
b101 ;
b11 <
b100 >
b1 !
b1 2
14
13
17
b1 1
b1 C
1D
#349896
b11 !
b11 2
16
15
b11 1
b11 C
0D
#350000
1&
#351064
b10 !
b10 2
04
03
07
b10 1
b10 C
1D
#352232
b0 !
b0 2
06
05
b0 1
b0 C
0D
#353400
b1 <
b100 ;
b11 =
b1 >
b1 !
b1 2
14
13
17
b1 1
b1 C
1D
#354568
b11 !
b11 2
16
15
b11 1
b11 C
0D
#355736
b10 !
b10 2
04
03
07
b10 1
b10 C
1D
#356904
b0 !
b0 2
06
05
b0 1
b0 C
0D
#358072
b101 ;
b10 <
b11 >
b1 !
b1 2
14
13
17
b1 1
b1 C
1D
#359240
b11 !
b11 2
16
15
b11 1
b11 C
0D
#360000
0&
#360408
b10 !
b10 2
04
03
07
b10 1
b10 C
1D
#361576
b0 !
b0 2
06
05
b0 1
b0 C
0D
#362744
b1 <
b11 ;
b10 =
b110 >
b1 !
b1 2
14
13
17
b1 1
b1 C
1D
#363912
b11 !
b11 2
16
15
b11 1
b11 C
0D
#365080
b10 !
b10 2
04
03
07
b10 1
b10 C
1D
#366248
b0 !
b0 2
06
05
b0 1
b0 C
0D
#367416
b100 ;
b10 <
b100 >
b1 !
b1 2
14
13
17
b1 1
b1 C
1D
#368584
b11 !
b11 2
16
15
b11 1
b11 C
0D
#369752
b10 !
b10 2
04
03
07
b10 1
b10 C
1D
#370000
1&
#370920
b0 !
b0 2
06
05
b0 1
b0 C
0D
#372088
b11 ;
b1 <
b1 >
b1 !
b1 2
14
13
17
b1 1
b1 C
1D
#373256
b11 !
b11 2
16
15
b11 1
b11 C
0D
#374424
b10 !
b10 2
04
03
07
b10 1
b10 C
1D
#375592
b0 !
b0 2
06
05
b0 1
b0 C
0D
#376760
b100 ;
b10 <
b11 >
b1 !
b1 2
14
13
17
b1 1
b1 C
1D
#377928
b11 !
b11 2
16
15
b11 1
b11 C
0D
#379096
b10 !
b10 2
04
03
07
b10 1
b10 C
1D
#380000
0&
#380264
b0 !
b0 2
06
05
b0 1
b0 C
0D
#381432
b11 ;
b1 <
b110 >
b1 !
b1 2
14
13
17
b1 1
b1 C
1D
#382600
b11 !
b11 2
16
15
b11 1
b11 C
0D
#383768
b10 !
b10 2
04
03
07
b10 1
b10 C
1D
#384936
b0 !
b0 2
06
05
b0 1
b0 C
0D
#386104
b100 ;
b10 <
b100 >
b1 !
b1 2
14
13
17
b1 1
b1 C
1D
#387272
b11 !
b11 2
16
15
b11 1
b11 C
0D
#388440
b10 !
b10 2
04
03
07
b10 1
b10 C
1D
#389608
b0 !
b0 2
06
05
b0 1
b0 C
0D
#390000
1&
#390776
b11 ;
b1 <
b1 >
b1 !
b1 2
14
13
17
b1 1
b1 C
1D
#391944
b11 !
b11 2
16
15
b11 1
b11 C
0D
#393112
b10 !
b10 2
04
03
07
b10 1
b10 C
1D
#394280
b0 !
b0 2
06
05
b0 1
b0 C
0D
#395448
b100 ;
b10 <
b11 >
b1 !
b1 2
14
13
17
b1 1
b1 C
1D
#396616
b11 !
b11 2
16
15
b11 1
b11 C
0D
#397784
b10 !
b10 2
04
03
07
b10 1
b10 C
1D
#398952
b0 !
b0 2
06
05
b0 1
b0 C
0D
#400000
0&
#400120
b11 ;
b1 <
b110 >
b1 !
b1 2
14
13
17
b1 1
b1 C
1D
#401288
b11 !
b11 2
16
15
b11 1
b11 C
0D
#402456
b10 !
b10 2
04
03
07
b10 1
b10 C
1D
#403624
b0 !
b0 2
06
05
b0 1
b0 C
0D
#404792
b100 ;
b10 <
b100 >
b1 !
b1 2
14
13
17
b1 1
b1 C
1D
#405960
b11 !
b11 2
16
15
b11 1
b11 C
0D
#407128
b10 !
b10 2
04
03
07
b10 1
b10 C
1D
#408296
b0 !
b0 2
06
05
b0 1
b0 C
0D
#409464
b11 ;
b1 <
b0 >
b1 !
b1 2
14
13
17
b1 1
b1 C
1D
#410000
1&
#410632
b11 !
b11 2
16
15
b11 1
b11 C
0D
#411800
b10 !
b10 2
04
03
07
b10 1
b10 C
1D
#412968
b0 !
b0 2
06
05
b0 1
b0 C
0D
#414136
b100 ;
b10 <
b1 >
b1 !
b1 2
14
13
17
b1 1
b1 C
1D
#415304
b11 !
b11 2
16
15
b11 1
b11 C
0D
#416472
b10 !
b10 2
04
03
07
b10 1
b10 C
1D
#417640
b0 !
b0 2
06
05
b0 1
b0 C
0D
#418808
b101 ;
b11 <
b11 >
b1 !
b1 2
14
13
17
b1 1
b1 C
1D
#419976
b11 !
b11 2
16
15
b11 1
b11 C
0D
#420000
0&
#421144
b10 !
b10 2
04
03
07
b10 1
b10 C
1D
#422312
b0 !
b0 2
06
05
b0 1
b0 C
0D
#423480
b1 <
b100 ;
b11 =
b110 >
b1 !
b1 2
14
13
17
b1 1
b1 C
1D
#424648
b11 !
b11 2
16
15
b11 1
b11 C
0D
#425816
b10 !
b10 2
04
03
07
b10 1
b10 C
1D
#426984
b0 !
b0 2
06
05
b0 1
b0 C
0D
#428152
b101 ;
b10 <
b100 >
b1 !
b1 2
14
13
17
b1 1
b1 C
1D
#429320
b11 !
b11 2
16
15
b11 1
b11 C
0D
#430000
1&
#430488
b10 !
b10 2
04
03
07
b10 1
b10 C
1D
#431656
b0 !
b0 2
06
05
b0 1
b0 C
0D
#432824
b1 <
b11 ;
b10 =
b1 >
b1 !
b1 2
14
13
17
b1 1
b1 C
1D
#433992
b11 !
b11 2
16
15
b11 1
b11 C
0D
#435160
b10 !
b10 2
04
03
07
b10 1
b10 C
1D
#436328
b0 !
b0 2
06
05
b0 1
b0 C
0D
#437496
b100 ;
b10 <
b11 >
b1 !
b1 2
14
13
17
b1 1
b1 C
1D
#438664
b11 !
b11 2
16
15
b11 1
b11 C
0D
#439832
b10 !
b10 2
04
03
07
b10 1
b10 C
1D
#440000
0&
#441000
b0 !
b0 2
06
05
b0 1
b0 C
0D
#442168
b11 ;
b1 <
b110 >
b1 !
b1 2
14
13
17
b1 1
b1 C
1D
#443336
b11 !
b11 2
16
15
b11 1
b11 C
0D
#444504
b10 !
b10 2
04
03
07
b10 1
b10 C
1D
#445672
b0 !
b0 2
06
05
b0 1
b0 C
0D
#446840
b100 ;
b10 <
b100 >
b1 !
b1 2
14
13
17
b1 1
b1 C
1D
#448008
b11 !
b11 2
16
15
b11 1
b11 C
0D
#449176
b10 !
b10 2
04
03
07
b10 1
b10 C
1D
#450000
1&
#450344
b0 !
b0 2
06
05
b0 1
b0 C
0D
#451512
b11 ;
b1 <
b1 >
b1 !
b1 2
14
13
17
b1 1
b1 C
1D
#452680
b11 !
b11 2
16
15
b11 1
b11 C
0D
#453848
b10 !
b10 2
04
03
07
b10 1
b10 C
1D
#455016
b0 !
b0 2
06
05
b0 1
b0 C
0D
#456184
b100 ;
b10 <
b11 >
b1 !
b1 2
14
13
17
b1 1
b1 C
1D
#457352
b11 !
b11 2
16
15
b11 1
b11 C
0D
#458520
b10 !
b10 2
04
03
07
b10 1
b10 C
1D
#459688
b0 !
b0 2
06
05
b0 1
b0 C
0D
#460000
0&
#460856
b11 ;
b1 <
b110 >
b1 !
b1 2
14
13
17
b1 1
b1 C
1D
#462024
b11 !
b11 2
16
15
b11 1
b11 C
0D
#463192
b10 !
b10 2
04
03
07
b10 1
b10 C
1D
#464360
b0 !
b0 2
06
05
b0 1
b0 C
0D
#465528
b100 ;
b10 <
b100 >
b1 !
b1 2
14
13
17
b1 1
b1 C
1D
#466696
b11 !
b11 2
16
15
b11 1
b11 C
0D
#467864
b10 !
b10 2
04
03
07
b10 1
b10 C
1D
#469032
b0 !
b0 2
06
05
b0 1
b0 C
0D
#470000
1&
#470200
b11 ;
b1 <
b1 >
b1 !
b1 2
14
13
17
b1 1
b1 C
1D
#471368
b11 !
b11 2
16
15
b11 1
b11 C
0D
#472536
b10 !
b10 2
04
03
07
b10 1
b10 C
1D
#473704
b0 !
b0 2
06
05
b0 1
b0 C
0D
#474872
b100 ;
b10 <
b11 >
b1 !
b1 2
14
13
17
b1 1
b1 C
1D
#476040
b11 !
b11 2
16
15
b11 1
b11 C
0D
#477208
b10 !
b10 2
04
03
07
b10 1
b10 C
1D
#478376
b0 !
b0 2
06
05
b0 1
b0 C
0D
#479544
b11 ;
b1 <
b111 >
b1 !
b1 2
14
13
17
b1 1
b1 C
1D
#480000
0&
#480712
b11 !
b11 2
16
15
b11 1
b11 C
0D
#481880
b10 !
b10 2
04
03
07
b10 1
b10 C
1D
#483048
b0 !
b0 2
06
05
b0 1
b0 C
0D
#484216
b100 ;
b10 <
b110 >
b1 !
b1 2
14
13
17
b1 1
b1 C
1D
#485384
b11 !
b11 2
16
15
b11 1
b11 C
0D
#486552
b10 !
b10 2
04
03
07
b10 1
b10 C
1D
#487720
b0 !
b0 2
06
05
b0 1
b0 C
0D
#488888
b101 ;
b11 <
b100 >
b1 !
b1 2
14
13
17
b1 1
b1 C
1D
#490000
1&
#490056
b11 !
b11 2
16
15
b11 1
b11 C
0D
#491224
b10 !
b10 2
04
03
07
b10 1
b10 C
1D
#492392
b0 !
b0 2
06
05
b0 1
b0 C
0D
#493560
b1 <
b100 ;
b11 =
b1 >
b1 !
b1 2
14
13
17
b1 1
b1 C
1D
#494728
b11 !
b11 2
16
15
b11 1
b11 C
0D
#495896
b10 !
b10 2
04
03
07
b10 1
b10 C
1D
#497064
b0 !
b0 2
06
05
b0 1
b0 C
0D
#498232
b101 ;
b10 <
b11 >
b1 !
b1 2
14
13
17
b1 1
b1 C
1D
#499400
b11 !
b11 2
16
15
b11 1
b11 C
0D
#500000
0&
#500568
b10 !
b10 2
04
03
07
b10 1
b10 C
1D
#501736
b0 !
b0 2
06
05
b0 1
b0 C
0D
#502904
b1 <
b11 ;
b10 =
b110 >
b1 !
b1 2
14
13
17
b1 1
b1 C
1D
#504072
b11 !
b11 2
16
15
b11 1
b11 C
0D
#505240
b10 !
b10 2
04
03
07
b10 1
b10 C
1D
#506408
b0 !
b0 2
06
05
b0 1
b0 C
0D
#507576
b100 ;
b10 <
b100 >
b1 !
b1 2
14
13
17
b1 1
b1 C
1D
