waves/waves_ring_osc_reset.vcd
$date
	Tue Jul  1 13:42:23 2025
$end
$version
	Icarus Verilog
$end
$timescale
	1ps
$end
$scope module tb_ring_osc_s1 $end
$var wire 2 ! clockp [1:0] $end
$var reg 1 " reset $end
$var reg 26 # trim [25:0] $end
$scope module uut $end
$var wire 1 " reset $end
$var wire 26 $ trim [25:0] $end
$var wire 6 % bcount [5:0] $end
$var reg 2 & clockp [1:0] $end
$var reg 1 ' hiclock $end
$var real 1 ( delay $end
$upscope $end
$upscope $end
$enddefinitions $end
#0
$dumpvars
r1.168 (
0'
b0 &
b0 %
b0 $
b0 #
1"
b0 !
$end
#2000
1'
#3168
0'
#4336
1'
#5504
0'
#6672
1'
#7840
0'
#9008
1'
#10176
0'
#11344
1'
#12512
0'
#13680
1'
#14848
0'
#16016
1'
#17184
0'
#18352
1'
#19520
0'
#20688
1'
#21856
0'
#23024
1'
#24192
0'
#25360
1'
#26528
0'
#27696
1'
#28864
0'
#30032
1'
#31200
0'
#32368
1'
#33536
0'
#34704
1'
#35872
0'
#37040
1'
#38208
0'
#39376
1'
#40544
0'
#41712
1'
#42880
0'
#44048
1'
#45216
0'
#46384
1'
#47552
0'
#48720
1'
#49888
0'
#51056
1'
#52224
0'
#53392
1'
#54560
0'
#55728
1'
#56896
0'
#58064
1'
#59232
0'
#60400
1'
#61568
0'
#62736
1'
#63904
0'
#65072
1'
#66240
0'
#67408
1'
#68576
0'
#69744
1'
#70912
0'
#72080
1'
#73248
0'
#74416
1'
#75584
0'
#76752
1'
#77920
0'
#79088
1'
#80256
0'
#81424
1'
#82592
0'
#83760
1'
#84928
0'
#86096
1'
#87264
0'
#88432
1'
#89600
0'
#90768
1'
#91936
0'
#93104
1'
#94272
0'
#95440
1'
#96608
0'
#97776
1'
#98944
0'
#100000
0"
#100112
b1 !
b1 &
1'
#101280
b11 !
b11 &
0'
#102448
b10 !
b10 &
1'
#103616
b0 !
b0 &
0'
#104784
b1 !
b1 &
1'
#105952
b11 !
b11 &
0'
#107120
b10 !
b10 &
1'
#108288
b0 !
b0 &
0'
#109456
b1 !
b1 &
1'
#110624
b11 !
b11 &
0'
#111792
b10 !
b10 &
1'
#112960
b0 !
b0 &
0'
#114128
b1 !
b1 &
1'
#115296
b11 !
b11 &
0'
#116464
b10 !
b10 &
1'
#117632
b0 !
b0 &
0'
#118800
b1 !
b1 &
1'
#119968
b11 !
b11 &
0'
#121136
b10 !
b10 &
1'
#122304
b0 !
b0 &
0'
#123472
b1 !
b1 &
1'
#124640
b11 !
b11 &
0'
#125808
b10 !
b10 &
1'
#126976
b0 !
b0 &
0'
#128144
b1 !
b1 &
1'
#129312
b11 !
b11 &
0'
#130480
b10 !
b10 &
1'
#131648
b0 !
b0 &
0'
#132816
b1 !
b1 &
1'
#133984
b11 !
b11 &
0'
#135152
b10 !
b10 &
1'
#136320
b0 !
b0 &
0'
#137488
b1 !
b1 &
1'
#138656
b11 !
b11 &
0'
#139824
b10 !
b10 &
1'
#140992
b0 !
b0 &
0'
#142160
b1 !
b1 &
1'
#143328
b11 !
b11 &
0'
#144496
b10 !
b10 &
1'
#145664
b0 !
b0 &
0'
#146832
b1 !
b1 &
1'
#148000
b11 !
b11 &
0'
#149168
b10 !
b10 &
1'
#150336
b0 !
b0 &
0'
#151504
b1 !
b1 &
1'
#152672
b11 !
b11 &
0'
#153840
b10 !
b10 &
1'
#155008
b0 !
b0 &
0'
#156176
b1 !
b1 &
1'
#157344
b11 !
b11 &
0'
#158512
b10 !
b10 &
1'
#159680
b0 !
b0 &
0'
#160848
b1 !
b1 &
1'
#162016
b11 !
b11 &
0'
#163184
b10 !
b10 &
1'
#164352
b0 !
b0 &
0'
#165520
b1 !
b1 &
1'
#166688
b11 !
b11 &
0'
#167856
b10 !
b10 &
1'
#169024
b0 !
b0 &
0'
#170192
b1 !
b1 &
1'
#171360
b11 !
b11 &
0'
#172528
b10 !
b10 &
1'
#173696
b0 !
b0 &
0'
#174864
b1 !
b1 &
1'
#176032
b11 !
b11 &
0'
#177200
b10 !
b10 &
1'
#178368
b0 !
b0 &
0'
#179536
b1 !
b1 &
1'
#180704
b11 !
b11 &
0'
#181872
b10 !
b10 &
1'
#183040
b0 !
b0 &
0'
#184208
b1 !
b1 &
1'
#185376
b11 !
b11 &
0'
#186544
b10 !
b10 &
1'
#187712
b0 !
b0 &
0'
#188880
b1 !
b1 &
1'
#190048
b11 !
b11 &
0'
#191216
b10 !
b10 &
1'
#192384
b0 !
b0 &
0'
#193552
b1 !
b1 &
1'
#194720
b11 !
b11 &
0'
#195888
b10 !
b10 &
1'
#197056
b0 !
b0 &
0'
#198224
b1 !
b1 &
1'
#199392
b11 !
b11 &
0'
#200560
b10 !
b10 &
1'
#201728
b0 !
b0 &
0'
#202896
b1 !
b1 &
1'
#204064
b11 !
b11 &
0'
#205232
b10 !
b10 &
1'
#206400
b0 !
b0 &
0'
#207568
b1 !
b1 &
1'
#208736
b11 !
b11 &
0'
#209904
b10 !
b10 &
1'
#211072
b0 !
b0 &
0'
#212240
b1 !
b1 &
1'
#213408
b11 !
b11 &
0'
#214576
b10 !
b10 &
1'
#215744
b0 !
b0 &
0'
#216912
b1 !
b1 &
1'
#218080
b11 !
b11 &
0'
#219248
b10 !
b10 &
1'
#220416
b0 !
b0 &
0'
#221584
b1 !
b1 &
1'
#222752
b11 !
b11 &
0'
#223920
b10 !
b10 &
1'
#225088
b0 !
b0 &
0'
#226256
b1 !
b1 &
1'
#227424
b11 !
b11 &
0'
#228592
b10 !
b10 &
1'
#229760
b0 !
b0 &
0'
#230928
b1 !
b1 &
1'
#232096
b11 !
b11 &
0'
#233264
b10 !
b10 &
1'
#234432
b0 !
b0 &
0'
#235600
b1 !
b1 &
1'
#236768
b11 !
b11 &
0'
#237936
b10 !
b10 &
1'
#239104
b0 !
b0 &
0'
#240272
b1 !
b1 &
1'
#241440
b11 !
b11 &
0'
#242608
b10 !
b10 &
1'
#243776
b0 !
b0 &
0'
#244944
b1 !
b1 &
1'
#246112
b11 !
b11 &
0'
#247280
b10 !
b10 &
1'
#248448
b0 !
b0 &
0'
#249616
b1 !
b1 &
1'
#250784
b11 !
b11 &
0'
#251952
b10 !
b10 &
1'
#253120
b0 !
b0 &
0'
#254288
b1 !
b1 &
1'
#255456
b11 !
b11 &
0'
#256624
b10 !
b10 &
1'
#257792
b0 !
b0 &
0'
#258960
b1 !
b1 &
1'
#260128
b11 !
b11 &
0'
#261296
b10 !
b10 &
1'
#262464
b0 !
b0 &
0'
#263632
b1 !
b1 &
1'
#264800
b11 !
b11 &
0'
#265968
b10 !
b10 &
1'
#267136
b0 !
b0 &
0'
#268304
b1 !
b1 &
1'
#269472
b11 !
b11 &
0'
#270640
b10 !
b10 &
1'
#271808
b0 !
b0 &
0'
#272976
b1 !
b1 &
1'
#274144
b11 !
b11 &
0'
#275312
b10 !
b10 &
1'
#276480
b0 !
b0 &
0'
#277648
b1 !
b1 &
1'
#278816
b11 !
b11 &
0'
#279984
b10 !
b10 &
1'
#281152
b0 !
b0 &
0'
#282320
b1 !
b1 &
1'
#283488
b11 !
b11 &
0'
#284656
b10 !
b10 &
1'
#285824
b0 !
b0 &
0'
#286992
b1 !
b1 &
1'
#288160
b11 !
b11 &
0'
#289328
b10 !
b10 &
1'
#290496
b0 !
b0 &
0'
#291664
b1 !
b1 &
1'
#292832
b11 !
b11 &
0'
#294000
b10 !
b10 &
1'
#295168
b0 !
b0 &
0'
#296336
b1 !
b1 &
1'
#297504
b11 !
b11 &
0'
#298672
b10 !
b10 &
1'
#299840
b0 !
b0 &
0'
#301008
b1 !
b1 &
1'
#302176
b11 !
b11 &
0'
#303344
b10 !
b10 &
1'
#304512
b0 !
b0 &
0'
#305680
b1 !
b1 &
1'
#306848
b11 !
b11 &
0'
#308016
b10 !
b10 &
1'
#309184
b0 !
b0 &
0'
#310352
b1 !
b1 &
1'
#311520
b11 !
b11 &
0'
#312688
b10 !
b10 &
1'
#313856
b0 !
b0 &
0'
#315024
b1 !
b1 &
1'
#316192
b11 !
b11 &
0'
#317360
b10 !
b10 &
1'
#318528
b0 !
b0 &
0'
#319696
b1 !
b1 &
1'
#320864
b11 !
b11 &
0'
#322032
b10 !
b10 &
1'
#323200
b0 !
b0 &
0'
#324368
b1 !
b1 &
1'
#325536
b11 !
b11 &
0'
#326704
b10 !
b10 &
1'
#327872
b0 !
b0 &
0'
#329040
b1 !
b1 &
1'
#330208
b11 !
b11 &
0'
#331376
b10 !
b10 &
1'
#332544
b0 !
b0 &
0'
#333712
b1 !
b1 &
1'
#334880
b11 !
b11 &
0'
#336048
b10 !
b10 &
1'
#337216
b0 !
b0 &
0'
#338384
b1 !
b1 &
1'
#339552
b11 !
b11 &
0'
#340720
b10 !
b10 &
1'
#341888
b0 !
b0 &
0'
#343056
b1 !
b1 &
1'
#344224
b11 !
b11 &
0'
#345392
b10 !
b10 &
1'
#346560
b0 !
b0 &
0'
#347728
b1 !
b1 &
1'
#348896
b11 !
b11 &
0'
#350064
b10 !
b10 &
1'
#351232
b0 !
b0 &
0'
#352400
b1 !
b1 &
1'
#353568
b11 !
b11 &
0'
#354736
b10 !
b10 &
1'
#355904
b0 !
b0 &
0'
#357072
b1 !
b1 &
1'
#358240
b11 !
b11 &
0'
#359408
b10 !
b10 &
1'
#360576
b0 !
b0 &
0'
#361744
b1 !
b1 &
1'
#362912
b11 !
b11 &
0'
#364080
b10 !
b10 &
1'
#365248
b0 !
b0 &
0'
#366416
b1 !
b1 &
1'
#367584
b11 !
b11 &
0'
#368752
b10 !
b10 &
1'
#369920
b0 !
b0 &
0'
#371088
b1 !
b1 &
1'
#372256
b11 !
b11 &
0'
#373424
b10 !
b10 &
1'
#374592
b0 !
b0 &
0'
#375760
b1 !
b1 &
1'
#376928
b11 !
b11 &
0'
#378096
b10 !
b10 &
1'
#379264
b0 !
b0 &
0'
#380432
b1 !
b1 &
1'
#381600
b11 !
b11 &
0'
#382768
b10 !
b10 &
1'
#383936
b0 !
b0 &
0'
#385104
b1 !
b1 &
1'
#386272
b11 !
b11 &
0'
#387440
b10 !
b10 &
1'
#388608
b0 !
b0 &
0'
#389776
b1 !
b1 &
1'
#390944
b11 !
b11 &
0'
#392112
b10 !
b10 &
1'
#393280
b0 !
b0 &
0'
#394448
b1 !
b1 &
1'
#395616
b11 !
b11 &
0'
#396784
b10 !
b10 &
1'
#397952
b0 !
b0 &
0'
#399120
b1 !
b1 &
1'
#400288
b11 !
b11 &
0'
#401456
b10 !
b10 &
1'
#402624
b0 !
b0 &
0'
#403792
b1 !
b1 &
1'
#404960
b11 !
b11 &
0'
#406128
b10 !
b10 &
1'
#407296
b0 !
b0 &
0'
#408464
b1 !
b1 &
1'
#409632
b11 !
b11 &
0'
#410800
b10 !
b10 &
1'
#411968
b0 !
b0 &
0'
#413136
b1 !
b1 &
1'
#414304
b11 !
b11 &
0'
#415472
b10 !
b10 &
1'
#416640
b0 !
b0 &
0'
#417808
b1 !
b1 &
1'
#418976
b11 !
b11 &
0'
#420144
b10 !
b10 &
1'
#421312
b0 !
b0 &
0'
#422480
b1 !
b1 &
1'
#423648
b11 !
b11 &
0'
#424816
b10 !
b10 &
1'
#425984
b0 !
b0 &
0'
#427152
b1 !
b1 &
1'
#428320
b11 !
b11 &
0'
#429488
b10 !
b10 &
1'
#430656
b0 !
b0 &
0'
#431824
b1 !
b1 &
1'
#432992
b11 !
b11 &
0'
#434160
b10 !
b10 &
1'
#435328
b0 !
b0 &
0'
#436496
b1 !
b1 &
1'
#437664
b11 !
b11 &
0'
#438832
b10 !
b10 &
1'
#440000
b0 !
b0 &
0'
#441168
b1 !
b1 &
1'
#442336
b11 !
b11 &
0'
#443504
b10 !
b10 &
1'
#444672
b0 !
b0 &
0'
#445840
b1 !
b1 &
1'
#447008
b11 !
b11 &
0'
#448176
b10 !
b10 &
1'
#449344
b0 !
b0 &
0'
#450512
b1 !
b1 &
1'
#451680
b11 !
b11 &
0'
#452848
b10 !
b10 &
1'
#454016
b0 !
b0 &
0'
#455184
b1 !
b1 &
1'
#456352
b11 !
b11 &
0'
#457520
b10 !
b10 &
1'
#458688
b0 !
b0 &
0'
#459856
b1 !
b1 &
1'
#461024
b11 !
b11 &
0'
#462192
b10 !
b10 &
1'
#463360
b0 !
b0 &
0'
#464528
b1 !
b1 &
1'
#465696
b11 !
b11 &
0'
#466864
b10 !
b10 &
1'
#468032
b0 !
b0 &
0'
#469200
b1 !
b1 &
1'
#470368
b11 !
b11 &
0'
#471536
b10 !
b10 &
1'
#472704
b0 !
b0 &
0'
#473872
b1 !
b1 &
1'
#475040
b11 !
b11 &
0'
#476208
b10 !
b10 &
1'
#477376
b0 !
b0 &
0'
#478544
b1 !
b1 &
1'
#479712
b11 !
b11 &
0'
#480880
b10 !
b10 &
1'
#482048
b0 !
b0 &
0'
#483216
b1 !
b1 &
1'
#484384
b11 !
b11 &
0'
#485552
b10 !
b10 &
1'
#486720
b0 !
b0 &
0'
#487888
b1 !
b1 &
1'
#489056
b11 !
b11 &
0'
#490224
b10 !
b10 &
1'
#491392
b0 !
b0 &
0'
#492560
b1 !
b1 &
1'
#493728
b11 !
b11 &
0'
#494896
b10 !
b10 &
1'
#496064
b0 !
b0 &
0'
#497232
b1 !
b1 &
1'
#498400
b11 !
b11 &
0'
#499568
b10 !
b10 &
1'
#500736
b0 !
b0 &
0'
#501904
b1 !
b1 &
1'
#503072
b11 !
b11 &
0'
#504240
b10 !
b10 &
1'
#505408
b0 !
b0 &
0'
#506576
b1 !
b1 &
1'
#507744
b11 !
b11 &
0'
#508912
b10 !
b10 &
1'
#510080
b0 !
b0 &
0'
#511248
b1 !
b1 &
1'
#512416
b11 !
b11 &
0'
#513584
b10 !
b10 &
1'
#514752
b0 !
b0 &
0'
#515920
b1 !
b1 &
1'
#517088
b11 !
b11 &
0'
#518256
b10 !
b10 &
1'
#519424
b0 !
b0 &
0'
#520592
b1 !
b1 &
1'
#521760
b11 !
b11 &
0'
#522928
b10 !
b10 &
1'
#524096
b0 !
b0 &
0'
#525264
b1 !
b1 &
1'
#526432
b11 !
b11 &
0'
#527600
b10 !
b10 &
1'
#528768
b0 !
b0 &
0'
#529936
b1 !
b1 &
1'
#531104
b11 !
b11 &
0'
#532272
b10 !
b10 &
1'
#533440
b0 !
b0 &
0'
#534608
b1 !
b1 &
1'
#535776
b11 !
b11 &
0'
#536944
b10 !
b10 &
1'
#538112
b0 !
b0 &
0'
#539280
b1 !
b1 &
1'
#540448
b11 !
b11 &
0'
#541616
b10 !
b10 &
1'
#542784
b0 !
b0 &
0'
#543952
b1 !
b1 &
1'
#545120
b11 !
b11 &
0'
#546288
b10 !
b10 &
1'
#547456
b0 !
b0 &
0'
#548624
b1 !
b1 &
1'
#549792
b11 !
b11 &
0'
#550960
b10 !
b10 &
1'
#552128
b0 !
b0 &
0'
#553296
b1 !
b1 &
1'
#554464
b11 !
b11 &
0'
#555632
b10 !
b10 &
1'
#556800
b0 !
b0 &
0'
#557968
b1 !
b1 &
1'
#559136
b11 !
b11 &
0'
#560304
b10 !
b10 &
1'
#561472
b0 !
b0 &
0'
#562640
b1 !
b1 &
1'
#563808
b11 !
b11 &
0'
#564976
b10 !
b10 &
1'
#566144
b0 !
b0 &
0'
#567312
b1 !
b1 &
1'
#568480
b11 !
b11 &
0'
#569648
b10 !
b10 &
1'
#570816
b0 !
b0 &
0'
#571984
b1 !
b1 &
1'
#573152
b11 !
b11 &
0'
#574320
b10 !
b10 &
1'
#575488
b0 !
b0 &
0'
#576656
b1 !
b1 &
1'
#577824
b11 !
b11 &
0'
#578992
b10 !
b10 &
1'
#580160
b0 !
b0 &
0'
#581328
b1 !
b1 &
1'
#582496
b11 !
b11 &
0'
#583664
b10 !
b10 &
1'
#584832
b0 !
b0 &
0'
#586000
b1 !
b1 &
1'
#587168
b11 !
b11 &
0'
#588336
b10 !
b10 &
1'
#589504
b0 !
b0 &
0'
#590672
b1 !
b1 &
1'
#591840
b11 !
b11 &
0'
#593008
b10 !
b10 &
1'
#594176
b0 !
b0 &
0'
#595344
b1 !
b1 &
1'
#596512
b11 !
b11 &
0'
#597680
b10 !
b10 &
1'
#598848
b0 !
b0 &
0'
#600016
b1 !
b1 &
1'
#601184
b11 !
b11 &
0'
#602352
b10 !
b10 &
1'
#603520
b0 !
b0 &
0'
#604688
b1 !
b1 &
1'
#605856
b11 !
b11 &
0'
#607024
b10 !
b10 &
1'
#608192
b0 !
b0 &
0'
#609360
b1 !
b1 &
1'
#610528
b11 !
b11 &
0'
#611696
b10 !
b10 &
1'
#612864
b0 !
b0 &
0'
#614032
b1 !
b1 &
1'
#615200
b11 !
b11 &
0'
#616368
b10 !
b10 &
1'
#617536
b0 !
b0 &
0'
#618704
b1 !
b1 &
1'
#619872
b11 !
b11 &
0'
#621040
b10 !
b10 &
1'
#622208
b0 !
b0 &
0'
#623376
b1 !
b1 &
1'
#624544
b11 !
b11 &
0'
#625712
b10 !
b10 &
1'
#626880
b0 !
b0 &
0'
#628048
b1 !
b1 &
1'
#629216
b11 !
b11 &
0'
#630384
b10 !
b10 &
1'
#631552
b0 !
b0 &
0'
#632720
b1 !
b1 &
1'
#633888
b11 !
b11 &
0'
#635056
b10 !
b10 &
1'
#636224
b0 !
b0 &
0'
#637392
b1 !
b1 &
1'
#638560
b11 !
b11 &
0'
#639728
b10 !
b10 &
1'
#640896
b0 !
b0 &
0'
#642064
b1 !
b1 &
1'
#643232
b11 !
b11 &
0'
#644400
b10 !
b10 &
1'
#645568
b0 !
b0 &
0'
#646736
b1 !
b1 &
1'
#647904
b11 !
b11 &
0'
#649072
b10 !
b10 &
1'
#650240
b0 !
b0 &
0'
#651408
b1 !
b1 &
1'
#652576
b11 !
b11 &
0'
#653744
b10 !
b10 &
1'
#654912
b0 !
b0 &
0'
#656080
b1 !
b1 &
1'
#657248
b11 !
b11 &
0'
#658416
b10 !
b10 &
1'
#659584
b0 !
b0 &
0'
#660752
b1 !
b1 &
1'
#661920
b11 !
b11 &
0'
#663088
b10 !
b10 &
1'
#664256
b0 !
b0 &
0'
#665424
b1 !
b1 &
1'
#666592
b11 !
b11 &
0'
#667760
b10 !
b10 &
1'
#668928
b0 !
b0 &
0'
#670096
b1 !
b1 &
1'
#671264
b11 !
b11 &
0'
#672432
b10 !
b10 &
1'
#673600
b0 !
b0 &
0'
#674768
b1 !
b1 &
1'
#675936
b11 !
b11 &
0'
#677104
b10 !
b10 &
1'
#678272
b0 !
b0 &
0'
#679440
b1 !
b1 &
1'
#680608
b11 !
b11 &
0'
#681776
b10 !
b10 &
1'
#682944
b0 !
b0 &
0'
#684112
b1 !
b1 &
1'
#685280
b11 !
b11 &
0'
#686448
b10 !
b10 &
1'
#687616
b0 !
b0 &
0'
#688784
b1 !
b1 &
1'
#689952
b11 !
b11 &
0'
#691120
b10 !
b10 &
1'
#692288
b0 !
b0 &
0'
#693456
b1 !
b1 &
1'
#694624
b11 !
b11 &
0'
#695792
b10 !
b10 &
1'
#696960
b0 !
b0 &
0'
#698128
b1 !
b1 &
1'
#699296
b11 !
b11 &
0'
#700464
b10 !
b10 &
1'
#701632
b0 !
b0 &
0'
#702800
b1 !
b1 &
1'
#703968
b11 !
b11 &
0'
#705136
b10 !
b10 &
1'
#706304
b0 !
b0 &
0'
#707472
b1 !
b1 &
1'
#708640
b11 !
b11 &
0'
#709808
b10 !
b10 &
1'
#710976
b0 !
b0 &
0'
#712144
b1 !
b1 &
1'
#713312
b11 !
b11 &
0'
#714480
b10 !
b10 &
1'
#715648
b0 !
b0 &
0'
#716816
b1 !
b1 &
1'
#717984
b11 !
b11 &
0'
#719152
b10 !
b10 &
1'
#720320
b0 !
b0 &
0'
#721488
b1 !
b1 &
1'
#722656
b11 !
b11 &
0'
#723824
b10 !
b10 &
1'
#724992
b0 !
b0 &
0'
#726160
b1 !
b1 &
1'
#727328
b11 !
b11 &
0'
#728496
b10 !
b10 &
1'
#729664
b0 !
b0 &
0'
#730832
b1 !
b1 &
1'
#732000
b11 !
b11 &
0'
#733168
b10 !
b10 &
1'
#734336
b0 !
b0 &
0'
#735504
b1 !
b1 &
1'
#736672
b11 !
b11 &
0'
#737840
b10 !
b10 &
1'
#739008
b0 !
b0 &
0'
#740176
b1 !
b1 &
1'
#741344
b11 !
b11 &
0'
#742512
b10 !
b10 &
1'
#743680
b0 !
b0 &
0'
#744848
b1 !
b1 &
1'
#746016
b11 !
b11 &
0'
#747184
b10 !
b10 &
1'
#748352
b0 !
b0 &
0'
#749520
b1 !
b1 &
1'
#750688
b11 !
b11 &
0'
#751856
b10 !
b10 &
1'
#753024
b0 !
b0 &
0'
#754192
b1 !
b1 &
1'
#755360
b11 !
b11 &
0'
#756528
b10 !
b10 &
1'
#757696
b0 !
b0 &
0'
#758864
b1 !
b1 &
1'
#760032
b11 !
b11 &
0'
#761200
b10 !
b10 &
1'
#762368
b0 !
b0 &
0'
#763536
b1 !
b1 &
1'
#764704
b11 !
b11 &
0'
#765872
b10 !
b10 &
1'
#767040
b0 !
b0 &
0'
#768208
b1 !
b1 &
1'
#769376
b11 !
b11 &
0'
#770544
b10 !
b10 &
1'
#771712
b0 !
b0 &
0'
#772880
b1 !
b1 &
1'
#774048
b11 !
b11 &
0'
#775216
b10 !
b10 &
1'
#776384
b0 !
b0 &
0'
#777552
b1 !
b1 &
1'
#778720
b11 !
b11 &
0'
#779888
b10 !
b10 &
1'
#781056
b0 !
b0 &
0'
#782224
b1 !
b1 &
1'
#783392
b11 !
b11 &
0'
#784560
b10 !
b10 &
1'
#785728
b0 !
b0 &
0'
#786896
b1 !
b1 &
1'
#788064
b11 !
b11 &
0'
#789232
b10 !
b10 &
1'
#790400
b0 !
b0 &
0'
#791568
b1 !
b1 &
1'
#792736
b11 !
b11 &
0'
#793904
b10 !
b10 &
1'
#795072
b0 !
b0 &
0'
#796240
b1 !
b1 &
1'
#797408
b11 !
b11 &
0'
#798576
b10 !
b10 &
1'
#799744
b0 !
b0 &
0'
#800912
b1 !
b1 &
1'
#802080
b11 !
b11 &
0'
#803248
b10 !
b10 &
1'
#804416
b0 !
b0 &
0'
#805584
b1 !
b1 &
1'
#806752
b11 !
b11 &
0'
#807920
b10 !
b10 &
1'
#809088
b0 !
b0 &
0'
#810256
b1 !
b1 &
1'
#811424
b11 !
b11 &
0'
#812592
b10 !
b10 &
1'
#813760
b0 !
b0 &
0'
#814928
b1 !
b1 &
1'
#816096
b11 !
b11 &
0'
#817264
b10 !
b10 &
1'
#818432
b0 !
b0 &
0'
#819600
b1 !
b1 &
1'
#820768
b11 !
b11 &
0'
#821936
b10 !
b10 &
1'
#823104
b0 !
b0 &
0'
#824272
b1 !
b1 &
1'
#825440
b11 !
b11 &
0'
#826608
b10 !
b10 &
1'
#827776
b0 !
b0 &
0'
#828944
b1 !
b1 &
1'
#830112
b11 !
b11 &
0'
#831280
b10 !
b10 &
1'
#832448
b0 !
b0 &
0'
#833616
b1 !
b1 &
1'
#834784
b11 !
b11 &
0'
#835952
b10 !
b10 &
1'
#837120
b0 !
b0 &
0'
#838288
b1 !
b1 &
1'
#839456
b11 !
b11 &
0'
#840624
b10 !
b10 &
1'
#841792
b0 !
b0 &
0'
#842960
b1 !
b1 &
1'
#844128
b11 !
b11 &
0'
#845296
b10 !
b10 &
1'
#846464
b0 !
b0 &
0'
#847632
b1 !
b1 &
1'
#848800
b11 !
b11 &
0'
#849968
b10 !
b10 &
1'
#851136
b0 !
b0 &
0'
#852304
b1 !
b1 &
1'
#853472
b11 !
b11 &
0'
#854640
b10 !
b10 &
1'
#855808
b0 !
b0 &
0'
#856976
b1 !
b1 &
1'
#858144
b11 !
b11 &
0'
#859312
b10 !
b10 &
1'
#860480
b0 !
b0 &
0'
#861648
b1 !
b1 &
1'
#862816
b11 !
b11 &
0'
#863984
b10 !
b10 &
1'
#865152
b0 !
b0 &
0'
#866320
b1 !
b1 &
1'
#867488
b11 !
b11 &
0'
#868656
b10 !
b10 &
1'
#869824
b0 !
b0 &
0'
#870992
b1 !
b1 &
1'
#872160
b11 !
b11 &
0'
#873328
b10 !
b10 &
1'
#874496
b0 !
b0 &
0'
#875664
b1 !
b1 &
1'
#876832
b11 !
b11 &
0'
#878000
b10 !
b10 &
1'
#879168
b0 !
b0 &
0'
#880336
b1 !
b1 &
1'
#881504
b11 !
b11 &
0'
#882672
b10 !
b10 &
1'
#883840
b0 !
b0 &
0'
#885008
b1 !
b1 &
1'
#886176
b11 !
b11 &
0'
#887344
b10 !
b10 &
1'
#888512
b0 !
b0 &
0'
#889680
b1 !
b1 &
1'
#890848
b11 !
b11 &
0'
#892016
b10 !
b10 &
1'
#893184
b0 !
b0 &
0'
#894352
b1 !
b1 &
1'
#895520
b11 !
b11 &
0'
#896688
b10 !
b10 &
1'
#897856
b0 !
b0 &
0'
#899024
b1 !
b1 &
1'
#900192
b11 !
b11 &
0'
#901360
b10 !
b10 &
1'
#902528
b0 !
b0 &
0'
#903696
b1 !
b1 &
1'
#904864
b11 !
b11 &
0'
#906032
b10 !
b10 &
1'
#907200
b0 !
b0 &
0'
#908368
b1 !
b1 &
1'
#909536
b11 !
b11 &
0'
#910704
b10 !
b10 &
1'
#911872
b0 !
b0 &
0'
#913040
b1 !
b1 &
1'
#914208
b11 !
b11 &
0'
#915376
b10 !
b10 &
1'
#916544
b0 !
b0 &
0'
#917712
b1 !
b1 &
1'
#918880
b11 !
b11 &
0'
#920048
b10 !
b10 &
1'
#921216
b0 !
b0 &
0'
#922384
b1 !
b1 &
1'
#923552
b11 !
b11 &
0'
#924720
b10 !
b10 &
1'
#925888
b0 !
b0 &
0'
#927056
b1 !
b1 &
1'
#928224
b11 !
b11 &
0'
#929392
b10 !
b10 &
1'
#930560
b0 !
b0 &
0'
#931728
b1 !
b1 &
1'
#932896
b11 !
b11 &
0'
#934064
b10 !
b10 &
1'
#935232
b0 !
b0 &
0'
#936400
b1 !
b1 &
1'
#937568
b11 !
b11 &
0'
#938736
b10 !
b10 &
1'
#939904
b0 !
b0 &
0'
#941072
b1 !
b1 &
1'
#942240
b11 !
b11 &
0'
#943408
b10 !
b10 &
1'
#944576
b0 !
b0 &
0'
#945744
b1 !
b1 &
1'
#946912
b11 !
b11 &
0'
#948080
b10 !
b10 &
1'
#949248
b0 !
b0 &
0'
#950416
b1 !
b1 &
1'
#951584
b11 !
b11 &
0'
#952752
b10 !
b10 &
1'
#953920
b0 !
b0 &
0'
#955088
b1 !
b1 &
1'
#956256
b11 !
b11 &
0'
#957424
b10 !
b10 &
1'
#958592
b0 !
b0 &
0'
#959760
b1 !
b1 &
1'
#960928
b11 !
b11 &
0'
#962096
b10 !
b10 &
1'
#963264
b0 !
b0 &
0'
#964432
b1 !
b1 &
1'
#965600
b11 !
b11 &
0'
#966768
b10 !
b10 &
1'
#967936
b0 !
b0 &
0'
#969104
b1 !
b1 &
1'
#970272
b11 !
b11 &
0'
#971440
b10 !
b10 &
1'
#972608
b0 !
b0 &
0'
#973776
b1 !
b1 &
1'
#974944
b11 !
b11 &
0'
#976112
b10 !
b10 &
1'
#977280
b0 !
b0 &
0'
#978448
b1 !
b1 &
1'
#979616
b11 !
b11 &
0'
#980784
b10 !
b10 &
1'
#981952
b0 !
b0 &
0'
#983120
b1 !
b1 &
1'
#984288
b11 !
b11 &
0'
#985456
b10 !
b10 &
1'
#986624
b0 !
b0 &
0'
#987792
b1 !
b1 &
1'
#988960
b11 !
b11 &
0'
#990128
b10 !
b10 &
1'
#991296
b0 !
b0 &
0'
#992464
b1 !
b1 &
1'
#993632
b11 !
b11 &
0'
#994800
b10 !
b10 &
1'
#995968
b0 !
b0 &
0'
#997136
b1 !
b1 &
1'
#998304
b11 !
b11 &
0'
#999472
b10 !
b10 &
1'
#1000640
b0 !
b0 &
0'
#1001808
b1 !
b1 &
1'
#1002976
b11 !
b11 &
0'
#1004144
b10 !
b10 &
1'
#1005312
b0 !
b0 &
0'
#1006480
b1 !
b1 &
1'
#1007648
b11 !
b11 &
0'
#1008816
b10 !
b10 &
1'
#1009984
b0 !
b0 &
0'
#1011152
b1 !
b1 &
1'
#1012320
b11 !
b11 &
0'
#1013488
b10 !
b10 &
1'
#1014656
b0 !
b0 &
0'
#1015824
b1 !
b1 &
1'
#1016992
b11 !
b11 &
0'
#1018160
b10 !
b10 &
1'
#1019328
b0 !
b0 &
0'
#1020496
b1 !
b1 &
1'
#1021664
b11 !
b11 &
0'
#1022832
b10 !
b10 &
1'
#1024000
b0 !
b0 &
0'
#1025168
b1 !
b1 &
1'
#1026336
b11 !
b11 &
0'
#1027504
b10 !
b10 &
1'
#1028672
b0 !
b0 &
0'
#1029840
b1 !
b1 &
1'
#1031008
b11 !
b11 &
0'
#1032176
b10 !
b10 &
1'
#1033344
b0 !
b0 &
0'
#1034512
b1 !
b1 &
1'
#1035680
b11 !
b11 &
0'
#1036848
b10 !
b10 &
1'
#1038016
b0 !
b0 &
0'
#1039184
b1 !
b1 &
1'
#1040352
b11 !
b11 &
0'
#1041520
b10 !
b10 &
1'
#1042688
b0 !
b0 &
0'
#1043856
b1 !
b1 &
1'
#1045024
b11 !
b11 &
0'
#1046192
b10 !
b10 &
1'
#1047360
b0 !
b0 &
0'
#1048528
b1 !
b1 &
1'
#1049696
b11 !
b11 &
0'
#1050864
b10 !
b10 &
1'
#1052032
b0 !
b0 &
0'
#1053200
b1 !
b1 &
1'
#1054368
b11 !
b11 &
0'
#1055536
b10 !
b10 &
1'
#1056704
b0 !
b0 &
0'
#1057872
b1 !
b1 &
1'
#1059040
b11 !
b11 &
0'
#1060208
b10 !
b10 &
1'
#1061376
b0 !
b0 &
0'
#1062544
b1 !
b1 &
1'
