waves/waves_ring_osc_transient.vcd
$date
	Thu Jul  3 16:04:25 2025
$end
$version
	Icarus Verilog
$end
$timescale
	1ps
$end
$scope module tb_ring_osc_transient $end
$var wire 2 ! clockp [1:0] $end
$var reg 1 " reset $end
$var reg 26 # trim [25:0] $end
$var real 1 $ T $end
$var real 1 % freq $end
$var integer 32 & i [31:0] $end
$var real 1 ' t_end $end
$var real 1 ( t_start $end
$scope module dut $end
$var wire 1 " reset $end
$var wire 26 ) trim [25:0] $end
$var wire 6 * bcount [5:0] $end
$var reg 2 + clockp [1:0] $end
$var reg 1 , hiclock $end
$var real 1 - delay $end
$upscope $end
$upscope $end
$enddefinitions $end
#0
$dumpvars
r1.168 -
0,
b0 +
b0 *
b0 )
r0 (
r0 '
bx &
r0 %
r0 $
b0 #
1"
b0 !
$end
#3000
1,
#4168
0,
#5336
1,
#6504
0,
#7672
1,
#8840
0,
#10008
1,
#11176
0,
#12344
1,
#13512
0,
#14680
1,
#15848
0,
#17016
1,
#18184
0,
#19352
1,
#20000
0"
#20520
b10 !
b10 +
0,
#21688
b11 !
b11 +
1,
#22856
b1 !
b1 +
0,
#24024
b0 !
b0 +
1,
#25192
b10 !
b10 +
0,
#26360
b11 !
b11 +
1,
#27528
b1 !
b1 +
0,
#28696
b0 !
b0 +
1,
#29864
b10 !
b10 +
0,
#31032
b11 !
b11 +
1,
#32200
b1 !
b1 +
0,
#33368
b0 !
b0 +
1,
#34536
b10 !
b10 +
0,
#35704
b11 !
b11 +
1,
#36872
b1 !
b1 +
0,
#38040
b0 !
b0 +
1,
#39208
b10 !
b10 +
0,
#40376
b11 !
b11 +
1,
#41544
b1 !
b1 +
0,
#42712
b0 !
b0 +
1,
#43880
b10 !
b10 +
0,
#45048
b11 !
b11 +
1,
#46216
b1 !
b1 +
0,
#47384
b0 !
b0 +
1,
#48552
b10 !
b10 +
0,
#49720
b11 !
b11 +
1,
#50888
b1 !
b1 +
0,
#52056
b0 !
b0 +
1,
#53224
b10 !
b10 +
0,
#54392
b11 !
b11 +
1,
#55560
b1 !
b1 +
0,
#56728
b0 !
b0 +
1,
#57896
b10 !
b10 +
0,
#59064
b11 !
b11 +
1,
#60232
b1 !
b1 +
0,
#61400
b0 !
b0 +
1,
#62568
b10 !
b10 +
0,
#63736
b11 !
b11 +
1,
#64904
b1 !
b1 +
0,
#66072
b0 !
b0 +
1,
#67240
b10 !
b10 +
0,
#68408
b11 !
b11 +
1,
#69576
b1 !
b1 +
0,
#70744
b0 !
b0 +
1,
#71912
b10 !
b10 +
0,
#73080
b11 !
b11 +
1,
#74248
b1 !
b1 +
0,
#75416
b0 !
b0 +
1,
#76584
b10 !
b10 +
0,
#77752
b11 !
b11 +
1,
#78920
b1 !
b1 +
0,
#80088
b0 !
b0 +
1,
#81256
b10 !
b10 +
0,
#82424
b11 !
b11 +
1,
#83592
b1 !
b1 +
0,
#84760
b0 !
b0 +
1,
#85928
b10 !
b10 +
0,
#87096
b11 !
b11 +
1,
#88264
b1 !
b1 +
0,
#89432
b0 !
b0 +
1,
#90600
b10 !
b10 +
0,
#91768
b11 !
b11 +
1,
#92936
b1 !
b1 +
0,
#94104
b0 !
b0 +
1,
#95272
b10 !
b10 +
0,
#96440
b11 !
b11 +
1,
#97608
b1 !
b1 +
0,
#98776
b0 !
b0 +
1,
#99944
b10 !
b10 +
0,
#101112
b11 !
b11 +
1,
#102280
b1 !
b1 +
0,
#103448
b0 !
b0 +
1,
#104616
b10 !
b10 +
0,
#105784
b11 !
b11 +
1,
#106952
b1 !
b1 +
0,
#108120
b0 !
b0 +
1,
#109288
b10 !
b10 +
0,
#110456
b11 !
b11 +
1,
#111624
b1 !
b1 +
0,
#112792
b0 !
b0 +
1,
#113960
b10 !
b10 +
0,
#115128
b11 !
b11 +
1,
#116296
b1 !
b1 +
0,
#117464
b0 !
b0 +
1,
#118632
b10 !
b10 +
0,
#119800
b11 !
b11 +
1,
#120968
b1 !
b1 +
0,
#122136
b0 !
b0 +
1,
#123304
b10 !
b10 +
0,
#124472
b11 !
b11 +
1,
#125640
b1 !
b1 +
0,
#126808
b0 !
b0 +
1,
#127976
b10 !
b10 +
0,
#129144
b11 !
b11 +
1,
#130312
b1 !
b1 +
0,
#131480
b0 !
b0 +
1,
#132648
b10 !
b10 +
0,
#133816
b11 !
b11 +
1,
#134984
b1 !
b1 +
0,
#136152
b0 !
b0 +
1,
#137320
b10 !
b10 +
0,
#138488
b11 !
b11 +
1,
#139656
b1 !
b1 +
0,
#140824
b0 !
b0 +
1,
#141992
b10 !
b10 +
0,
#143160
b11 !
b11 +
1,
#144328
b1 !
b1 +
0,
#145496
b0 !
b0 +
1,
#146664
b10 !
b10 +
0,
#147832
b11 !
b11 +
1,
#149000
b1 !
b1 +
0,
#150168
b0 !
b0 +
1,
#151336
b10 !
b10 +
0,
#152504
b11 !
b11 +
1,
#153672
b1 !
b1 +
0,
#154840
b0 !
b0 +
1,
#156008
b10 !
b10 +
0,
#157176
b11 !
b11 +
1,
#158344
b1 !
b1 +
0,
#159512
b0 !
b0 +
1,
#160680
b10 !
b10 +
0,
#161848
b11 !
b11 +
1,
#163016
b1 !
b1 +
0,
#164184
b0 !
b0 +
1,
#165352
b10 !
b10 +
0,
#166520
b11 !
b11 +
1,
#167688
b1 !
b1 +
0,
#168856
b0 !
b0 +
1,
#170024
b10 !
b10 +
0,
#171192
b11 !
b11 +
1,
#172360
b1 !
b1 +
0,
#173528
b0 !
b0 +
1,
#174696
b10 !
b10 +
0,
#175864
b11 !
b11 +
1,
#177032
b1 !
b1 +
0,
#178200
b0 !
b0 +
1,
#179368
b10 !
b10 +
0,
#180536
b11 !
b11 +
1,
#181704
b1 !
b1 +
0,
#182872
b0 !
b0 +
1,
#184040
b10 !
b10 +
0,
#185208
b11 !
b11 +
1,
#186376
b1 !
b1 +
0,
#187544
b0 !
b0 +
1,
#188712
b10 !
b10 +
0,
#189880
b11 !
b11 +
1,
#191048
b1 !
b1 +
0,
#192216
b0 !
b0 +
1,
#193384
b10 !
b10 +
0,
#194552
b11 !
b11 +
1,
#195720
b1 !
b1 +
0,
#196888
b0 !
b0 +
1,
#198056
b10 !
b10 +
0,
#199224
b11 !
b11 +
1,
#200392
b1 !
b1 +
0,
#201560
b0 !
b0 +
1,
#202728
b10 !
b10 +
0,
#203896
b11 !
b11 +
1,
#205064
b1 !
b1 +
0,
#206232
b0 !
b0 +
1,
#207400
b10 !
b10 +
0,
#208568
b11 !
b11 +
1,
#209736
b1 !
b1 +
0,
#210904
b0 !
b0 +
1,
#212072
b10 !
b10 +
0,
#213240
b11 !
b11 +
1,
#214408
b1 !
b1 +
0,
#215576
b0 !
b0 +
1,
#216744
b10 !
b10 +
0,
#217912
b11 !
b11 +
1,
#219080
b1 !
b1 +
0,
#220000
r1.18 -
b1 *
b1 #
b1 )
b0 &
#220248
b0 !
b0 +
1,
#221428
b10 !
b10 +
0,
#222608
b11 !
b11 +
1,
#223788
b1 !
b1 +
0,
#224968
b0 !
b0 +
1,
#226148
b10 !
b10 +
0,
#227328
b11 !
b11 +
1,
#228508
b1 !
b1 +
0,
#229688
b0 !
b0 +
1,
#230868
b10 !
b10 +
0,
#232048
b11 !
b11 +
1,
#233228
b1 !
b1 +
0,
#234408
b0 !
b0 +
1,
#235588
b10 !
b10 +
0,
#236768
b11 !
b11 +
1,
#237948
b1 !
b1 +
0,
#239128
b0 !
b0 +
1,
#240308
b10 !
b10 +
0,
#241488
b11 !
b11 +
1,
#242668
b1 !
b1 +
0,
#243848
b0 !
b0 +
1,
#245028
b10 !
b10 +
0,
#246208
b11 !
b11 +
1,
#247388
b1 !
b1 +
0,
#248568
b0 !
b0 +
1,
#249748
b10 !
b10 +
0,
#250928
b11 !
b11 +
1,
#252108
b1 !
b1 +
0,
#253288
b0 !
b0 +
1,
#254468
b10 !
b10 +
0,
#255648
b11 !
b11 +
1,
#256828
b1 !
b1 +
0,
#258008
b0 !
b0 +
1,
#259188
b10 !
b10 +
0,
#260368
b11 !
b11 +
1,
#261548
b1 !
b1 +
0,
#262728
b0 !
b0 +
1,
#263908
b10 !
b10 +
0,
#265088
b11 !
b11 +
1,
#266268
b1 !
b1 +
0,
#267448
b0 !
b0 +
1,
#268628
b10 !
b10 +
0,
#269808
b11 !
b11 +
1,
#270988
b1 !
b1 +
0,
#272168
b0 !
b0 +
1,
#273348
b10 !
b10 +
0,
#274528
b11 !
b11 +
1,
#275708
b1 !
b1 +
0,
#276888
b0 !
b0 +
1,
#278068
b10 !
b10 +
0,
#279248
b11 !
b11 +
1,
#280428
b1 !
b1 +
0,
#281608
b0 !
b0 +
1,
#282788
b10 !
b10 +
0,
#283968
b11 !
b11 +
1,
#285148
b1 !
b1 +
0,
#286328
b0 !
b0 +
1,
#287508
b10 !
b10 +
0,
#288688
b11 !
b11 +
1,
#289868
b1 !
b1 +
0,
#291048
b0 !
b0 +
1,
#292228
b10 !
b10 +
0,
#293408
b11 !
b11 +
1,
#294588
b1 !
b1 +
0,
#295768
b0 !
b0 +
1,
#296948
b10 !
b10 +
0,
#298128
b11 !
b11 +
1,
#299308
b1 !
b1 +
0,
#300488
b0 !
b0 +
1,
#301668
b10 !
b10 +
0,
#302848
b11 !
b11 +
1,
#304028
b1 !
b1 +
0,
#305208
b0 !
b0 +
1,
#306388
b10 !
b10 +
0,
#307568
b11 !
b11 +
1,
#308748
b1 !
b1 +
0,
#309928
b0 !
b0 +
1,
#311108
b10 !
b10 +
0,
#312288
b11 !
b11 +
1,
#313468
b1 !
b1 +
0,
#314648
b0 !
b0 +
1,
#315828
b10 !
b10 +
0,
#317008
b11 !
b11 +
1,
#318188
b1 !
b1 +
0,
#319368
b0 !
b0 +
1,
#320548
r320.548 (
b10 !
b10 +
0,
#321728
b11 !
b11 +
1,
#322908
b1 !
b1 +
0,
#324088
b0 !
b0 +
1,
#325268
r1.192 -
b10 *
b11 #
b11 )
b1 &
r211.8644067796623 %
r4.71999999999997 $
r325.268 '
b10 !
b10 +
0,
#326448
b11 !
b11 +
1,
#327640
b1 !
b1 +
0,
#328832
b0 !
b0 +
1,
#330024
b10 !
b10 +
0,
#331216
b11 !
b11 +
1,
#332408
b1 !
b1 +
0,
#333600
b0 !
b0 +
1,
#334792
b10 !
b10 +
0,
#335984
b11 !
b11 +
1,
#337176
b1 !
b1 +
0,
#338368
b0 !
b0 +
1,
#339560
b10 !
b10 +
0,
#340752
b11 !
b11 +
1,
#341944
b1 !
b1 +
0,
#343136
b0 !
b0 +
1,
#344328
b10 !
b10 +
0,
#345520
b11 !
b11 +
1,
#346712
b1 !
b1 +
0,
#347904
b0 !
b0 +
1,
#349096
b10 !
b10 +
0,
#350288
b11 !
b11 +
1,
#351480
b1 !
b1 +
0,
#352672
b0 !
b0 +
1,
#353864
b10 !
b10 +
0,
#355056
b11 !
b11 +
1,
#356248
b1 !
b1 +
0,
#357440
b0 !
b0 +
1,
#358632
b10 !
b10 +
0,
#359824
b11 !
b11 +
1,
#361016
b1 !
b1 +
0,
#362208
b0 !
b0 +
1,
#363400
b10 !
b10 +
0,
#364592
b11 !
b11 +
1,
#365784
b1 !
b1 +
0,
#366976
b0 !
b0 +
1,
#368168
b10 !
b10 +
0,
#369360
b11 !
b11 +
1,
#370552
b1 !
b1 +
0,
#371744
b0 !
b0 +
1,
#372936
b10 !
b10 +
0,
#374128
b11 !
b11 +
1,
#375320
b1 !
b1 +
0,
#376512
b0 !
b0 +
1,
#377704
b10 !
b10 +
0,
#378896
b11 !
b11 +
1,
#380088
b1 !
b1 +
0,
#381280
b0 !
b0 +
1,
#382472
b10 !
b10 +
0,
#383664
b11 !
b11 +
1,
#384856
b1 !
b1 +
0,
#386048
b0 !
b0 +
1,
#387240
b10 !
b10 +
0,
#388432
b11 !
b11 +
1,
#389624
b1 !
b1 +
0,
#390816
b0 !
b0 +
1,
#392008
b10 !
b10 +
0,
#393200
b11 !
b11 +
1,
#394392
b1 !
b1 +
0,
#395584
b0 !
b0 +
1,
#396776
b10 !
b10 +
0,
#397968
b11 !
b11 +
1,
#399160
b1 !
b1 +
0,
#400352
b0 !
b0 +
1,
#401544
b10 !
b10 +
0,
#402736
b11 !
b11 +
1,
#403928
b1 !
b1 +
0,
#405120
b0 !
b0 +
1,
#406312
b10 !
b10 +
0,
#407504
b11 !
b11 +
1,
#408696
b1 !
b1 +
0,
#409888
b0 !
b0 +
1,
#411080
b10 !
b10 +
0,
#412272
b11 !
b11 +
1,
#413464
b1 !
b1 +
0,
#414656
b0 !
b0 +
1,
#415848
b10 !
b10 +
0,
#417040
b11 !
b11 +
1,
#418232
b1 !
b1 +
0,
#419424
b0 !
b0 +
1,
#420616
b10 !
b10 +
0,
#421808
b11 !
b11 +
1,
#423000
b1 !
b1 +
0,
#424192
b0 !
b0 +
1,
#425384
r425.384 (
b10 !
b10 +
0,
#426576
b11 !
b11 +
1,
#427768
b1 !
b1 +
0,
#428960
b0 !
b0 +
1,
#430152
r1.204 -
b11 *
b111 #
b111 )
b10 &
r209.7315436241623 %
r4.767999999999972 $
r430.152 '
b10 !
b10 +
0,
#431344
b11 !
b11 +
1,
#432548
b1 !
b1 +
0,
#433752
b0 !
b0 +
1,
#434956
b10 !
b10 +
0,
#436160
b11 !
b11 +
1,
#437364
b1 !
b1 +
0,
#438568
b0 !
b0 +
1,
#439772
b10 !
b10 +
0,
#440976
b11 !
b11 +
1,
#442180
b1 !
b1 +
0,
#443384
b0 !
b0 +
1,
#444588
b10 !
b10 +
0,
#445792
b11 !
b11 +
1,
#446996
b1 !
b1 +
0,
#448200
b0 !
b0 +
1,
#449404
b10 !
b10 +
0,
#450608
b11 !
b11 +
1,
#451812
b1 !
b1 +
0,
#453016
b0 !
b0 +
1,
#454220
b10 !
b10 +
0,
#455424
b11 !
b11 +
1,
#456628
b1 !
b1 +
0,
#457832
b0 !
b0 +
1,
#459036
b10 !
b10 +
0,
#460240
b11 !
b11 +
1,
#461444
b1 !
b1 +
0,
#462648
b0 !
b0 +
1,
#463852
b10 !
b10 +
0,
#465056
b11 !
b11 +
1,
#466260
b1 !
b1 +
0,
#467464
b0 !
b0 +
1,
#468668
b10 !
b10 +
0,
#469872
b11 !
b11 +
1,
#471076
b1 !
b1 +
0,
#472280
b0 !
b0 +
1,
#473484
b10 !
b10 +
0,
#474688
b11 !
b11 +
1,
#475892
b1 !
b1 +
0,
#477096
b0 !
b0 +
1,
#478300
b10 !
b10 +
0,
#479504
b11 !
b11 +
1,
#480708
b1 !
b1 +
0,
#481912
b0 !
b0 +
1,
#483116
b10 !
b10 +
0,
#484320
b11 !
b11 +
1,
#485524
b1 !
b1 +
0,
#486728
b0 !
b0 +
1,
#487932
b10 !
b10 +
0,
#489136
b11 !
b11 +
1,
#490340
b1 !
b1 +
0,
#491544
b0 !
b0 +
1,
#492748
b10 !
b10 +
0,
#493952
b11 !
b11 +
1,
#495156
b1 !
b1 +
0,
#496360
b0 !
b0 +
1,
#497564
b10 !
b10 +
0,
#498768
b11 !
b11 +
1,
#499972
b1 !
b1 +
0,
#501176
b0 !
b0 +
1,
#502380
b10 !
b10 +
0,
#503584
b11 !
b11 +
1,
#504788
b1 !
b1 +
0,
#505992
b0 !
b0 +
1,
#507196
b10 !
b10 +
0,
#508400
b11 !
b11 +
1,
#509604
b1 !
b1 +
0,
#510808
b0 !
b0 +
1,
#512012
b10 !
b10 +
0,
#513216
b11 !
b11 +
1,
#514420
b1 !
b1 +
0,
#515624
b0 !
b0 +
1,
#516828
b10 !
b10 +
0,
#518032
b11 !
b11 +
1,
#519236
b1 !
b1 +
0,
#520440
b0 !
b0 +
1,
#521644
b10 !
b10 +
0,
#522848
b11 !
b11 +
1,
#524052
b1 !
b1 +
0,
#525256
b0 !
b0 +
1,
#526460
b10 !
b10 +
0,
#527664
b11 !
b11 +
1,
#528868
b1 !
b1 +
0,
#530072
b0 !
b0 +
1,
#531276
r531.276 (
b10 !
b10 +
0,
#532480
b11 !
b11 +
1,
#533684
b1 !
b1 +
0,
#534888
b0 !
b0 +
1,
#536092
r1.216 -
b100 *
b1111 #
b1111 )
b11 &
r207.6411960132877 %
r4.816000000000031 $
r536.092 '
b10 !
b10 +
0,
#537296
b11 !
b11 +
1,
#538512
b1 !
b1 +
0,
#539728
b0 !
b0 +
1,
#540944
b10 !
b10 +
0,
#542160
b11 !
b11 +
1,
#543376
b1 !
b1 +
0,
#544592
b0 !
b0 +
1,
#545808
b10 !
b10 +
0,
#547024
b11 !
b11 +
1,
#548240
b1 !
b1 +
0,
#549456
b0 !
b0 +
1,
#550672
b10 !
b10 +
0,
#551888
b11 !
b11 +
1,
#553104
b1 !
b1 +
0,
#554320
b0 !
b0 +
1,
#555536
b10 !
b10 +
0,
#556752
b11 !
b11 +
1,
#557968
b1 !
b1 +
0,
#559184
b0 !
b0 +
1,
#560400
b10 !
b10 +
0,
#561616
b11 !
b11 +
1,
#562832
b1 !
b1 +
0,
#564048
b0 !
b0 +
1,
#565264
b10 !
b10 +
0,
#566480
b11 !
b11 +
1,
#567696
b1 !
b1 +
0,
#568912
b0 !
b0 +
1,
#570128
b10 !
b10 +
0,
#571344
b11 !
b11 +
1,
#572560
b1 !
b1 +
0,
#573776
b0 !
b0 +
1,
#574992
b10 !
b10 +
0,
#576208
b11 !
b11 +
1,
#577424
b1 !
b1 +
0,
#578640
b0 !
b0 +
1,
#579856
b10 !
b10 +
0,
#581072
b11 !
b11 +
1,
#582288
b1 !
b1 +
0,
#583504
b0 !
b0 +
1,
#584720
b10 !
b10 +
0,
#585936
b11 !
b11 +
1,
#587152
b1 !
b1 +
0,
#588368
b0 !
b0 +
1,
#589584
b10 !
b10 +
0,
#590800
b11 !
b11 +
1,
#592016
b1 !
b1 +
0,
#593232
b0 !
b0 +
1,
#594448
b10 !
b10 +
0,
#595664
b11 !
b11 +
1,
#596880
b1 !
b1 +
0,
#598096
b0 !
b0 +
1,
#599312
b10 !
b10 +
0,
#600528
b11 !
b11 +
1,
#601744
b1 !
b1 +
0,
#602960
b0 !
b0 +
1,
#604176
b10 !
b10 +
0,
#605392
b11 !
b11 +
1,
#606608
b1 !
b1 +
0,
#607824
b0 !
b0 +
1,
#609040
b10 !
b10 +
0,
#610256
b11 !
b11 +
1,
#611472
b1 !
b1 +
0,
#612688
b0 !
b0 +
1,
#613904
b10 !
b10 +
0,
#615120
b11 !
b11 +
1,
#616336
b1 !
b1 +
0,
#617552
b0 !
b0 +
1,
#618768
b10 !
b10 +
0,
#619984
b11 !
b11 +
1,
#621200
b1 !
b1 +
0,
#622416
b0 !
b0 +
1,
#623632
b10 !
b10 +
0,
#624848
b11 !
b11 +
1,
#626064
b1 !
b1 +
0,
#627280
b0 !
b0 +
1,
#628496
b10 !
b10 +
0,
#629712
b11 !
b11 +
1,
#630928
b1 !
b1 +
0,
#632144
b0 !
b0 +
1,
#633360
b10 !
b10 +
0,
#634576
b11 !
b11 +
1,
#635792
b1 !
b1 +
0,
#637008
b0 !
b0 +
1,
#638224
r638.224 (
b10 !
b10 +
0,
#639440
b11 !
b11 +
1,
#640656
b1 !
b1 +
0,
#641872
b0 !
b0 +
1,
#643088
r1.228 -
b101 *
b11111 #
b11111 )
b100 &
r205.5921052631613 %
r4.863999999999919 $
r643.088 '
b10 !
b10 +
0,
#644304
b11 !
b11 +
1,
#645532
b1 !
b1 +
0,
#646760
b0 !
b0 +
1,
#647988
b10 !
b10 +
0,
#649216
b11 !
b11 +
1,
#650444
b1 !
b1 +
0,
#651672
b0 !
b0 +
1,
#652900
b10 !
b10 +
0,
#654128
b11 !
b11 +
1,
#655356
b1 !
b1 +
0,
#656584
b0 !
b0 +
1,
#657812
b10 !
b10 +
0,
#659040
b11 !
b11 +
1,
#660268
b1 !
b1 +
0,
#661496
b0 !
b0 +
1,
#662724
b10 !
b10 +
0,
#663952
b11 !
b11 +
1,
#665180
b1 !
b1 +
0,
#666408
b0 !
b0 +
1,
#667636
b10 !
b10 +
0,
#668864
b11 !
b11 +
1,
#670092
b1 !
b1 +
0,
#671320
b0 !
b0 +
1,
#672548
b10 !
b10 +
0,
#673776
b11 !
b11 +
1,
#675004
b1 !
b1 +
0,
#676232
b0 !
b0 +
1,
#677460
b10 !
b10 +
0,
#678688
b11 !
b11 +
1,
#679916
b1 !
b1 +
0,
#681144
b0 !
b0 +
1,
#682372
b10 !
b10 +
0,
#683600
b11 !
b11 +
1,
#684828
b1 !
b1 +
0,
#686056
b0 !
b0 +
1,
#687284
b10 !
b10 +
0,
#688512
b11 !
b11 +
1,
#689740
b1 !
b1 +
0,
#690968
b0 !
b0 +
1,
#692196
b10 !
b10 +
0,
#693424
b11 !
b11 +
1,
#694652
b1 !
b1 +
0,
#695880
b0 !
b0 +
1,
#697108
b10 !
b10 +
0,
#698336
b11 !
b11 +
1,
#699564
b1 !
b1 +
0,
#700792
b0 !
b0 +
1,
#702020
b10 !
b10 +
0,
#703248
b11 !
b11 +
1,
#704476
b1 !
b1 +
0,
#705704
b0 !
b0 +
1,
#706932
b10 !
b10 +
0,
#708160
b11 !
b11 +
1,
#709388
b1 !
b1 +
0,
#710616
b0 !
b0 +
1,
#711844
b10 !
b10 +
0,
#713072
b11 !
b11 +
1,
#714300
b1 !
b1 +
0,
#715528
b0 !
b0 +
1,
#716756
b10 !
b10 +
0,
#717984
b11 !
b11 +
1,
#719212
b1 !
b1 +
0,
#720440
b0 !
b0 +
1,
#721668
b10 !
b10 +
0,
#722896
b11 !
b11 +
1,
#724124
b1 !
b1 +
0,
#725352
b0 !
b0 +
1,
#726580
b10 !
b10 +
0,
#727808
b11 !
b11 +
1,
#729036
b1 !
b1 +
0,
#730264
b0 !
b0 +
1,
#731492
b10 !
b10 +
0,
#732720
b11 !
b11 +
1,
#733948
b1 !
b1 +
0,
#735176
b0 !
b0 +
1,
#736404
b10 !
b10 +
0,
#737632
b11 !
b11 +
1,
#738860
b1 !
b1 +
0,
#740088
b0 !
b0 +
1,
#741316
b10 !
b10 +
0,
#742544
b11 !
b11 +
1,
#743772
b1 !
b1 +
0,
#745000
b0 !
b0 +
1,
#746228
r746.228 (
b10 !
b10 +
0,
#747456
b11 !
b11 +
1,
#748684
b1 !
b1 +
0,
#749912
b0 !
b0 +
1,
#751140
r1.24 -
b110 *
b111111 #
b111111 )
b101 &
r203.5830618892494 %
r4.912000000000035 $
r751.14 '
b10 !
b10 +
0,
#752368
b11 !
b11 +
1,
#753608
b1 !
b1 +
0,
#754848
b0 !
b0 +
1,
#756088
b10 !
b10 +
0,
#757328
b11 !
b11 +
1,
#758568
b1 !
b1 +
0,
#759808
b0 !
b0 +
1,
#761048
b10 !
b10 +
0,
#762288
b11 !
b11 +
1,
#763528
b1 !
b1 +
0,
#764768
b0 !
b0 +
1,
#766008
b10 !
b10 +
0,
#767248
b11 !
b11 +
1,
#768488
b1 !
b1 +
0,
#769728
b0 !
b0 +
1,
#770968
b10 !
b10 +
0,
#772208
b11 !
b11 +
1,
#773448
b1 !
b1 +
0,
#774688
b0 !
b0 +
1,
#775928
b10 !
b10 +
0,
#777168
b11 !
b11 +
1,
#778408
b1 !
b1 +
0,
#779648
b0 !
b0 +
1,
#780888
b10 !
b10 +
0,
#782128
b11 !
b11 +
1,
#783368
b1 !
b1 +
0,
#784608
b0 !
b0 +
1,
#785848
b10 !
b10 +
0,
#787088
b11 !
b11 +
1,
#788328
b1 !
b1 +
0,
#789568
b0 !
b0 +
1,
#790808
b10 !
b10 +
0,
#792048
b11 !
b11 +
1,
#793288
b1 !
b1 +
0,
#794528
b0 !
b0 +
1,
#795768
b10 !
b10 +
0,
#797008
b11 !
b11 +
1,
#798248
b1 !
b1 +
0,
#799488
b0 !
b0 +
1,
#800728
b10 !
b10 +
0,
#801968
b11 !
b11 +
1,
#803208
b1 !
b1 +
0,
#804448
b0 !
b0 +
1,
#805688
b10 !
b10 +
0,
#806928
b11 !
b11 +
1,
#808168
b1 !
b1 +
0,
#809408
b0 !
b0 +
1,
#810648
b10 !
b10 +
0,
#811888
b11 !
b11 +
1,
#813128
b1 !
b1 +
0,
#814368
b0 !
b0 +
1,
#815608
b10 !
b10 +
0,
#816848
b11 !
b11 +
1,
#818088
b1 !
b1 +
0,
#819328
b0 !
b0 +
1,
#820568
b10 !
b10 +
0,
#821808
b11 !
b11 +
1,
#823048
b1 !
b1 +
0,
#824288
b0 !
b0 +
1,
#825528
b10 !
b10 +
0,
#826768
b11 !
b11 +
1,
#828008
b1 !
b1 +
0,
#829248
b0 !
b0 +
1,
#830488
b10 !
b10 +
0,
#831728
b11 !
b11 +
1,
#832968
b1 !
b1 +
0,
#834208
b0 !
b0 +
1,
#835448
b10 !
b10 +
0,
#836688
b11 !
b11 +
1,
#837928
b1 !
b1 +
0,
#839168
b0 !
b0 +
1,
#840408
b10 !
b10 +
0,
#841648
b11 !
b11 +
1,
#842888
b1 !
b1 +
0,
#844128
b0 !
b0 +
1,
#845368
b10 !
b10 +
0,
#846608
b11 !
b11 +
1,
#847848
b1 !
b1 +
0,
#849088
b0 !
b0 +
1,
#850328
b10 !
b10 +
0,
#851568
b11 !
b11 +
1,
#852808
b1 !
b1 +
0,
#854048
b0 !
b0 +
1,
#855288
r855.288 (
b10 !
b10 +
0,
#856528
b11 !
b11 +
1,
#857768
b1 !
b1 +
0,
#859008
b0 !
b0 +
1,
#860248
r1.252 -
b111 *
b1111111 #
b1111111 )
b110 &
r201.612903225805 %
r4.960000000000036 $
r860.248 '
b10 !
b10 +
0,
#861488
b11 !
b11 +
1,
#862740
b1 !
b1 +
0,
#863992
b0 !
b0 +
1,
#865244
b10 !
b10 +
0,
#866496
b11 !
b11 +
1,
#867748
b1 !
b1 +
0,
#869000
b0 !
b0 +
1,
#870252
b10 !
b10 +
0,
#871504
b11 !
b11 +
1,
#872756
b1 !
b1 +
0,
#874008
b0 !
b0 +
1,
#875260
b10 !
b10 +
0,
#876512
b11 !
b11 +
1,
#877764
b1 !
b1 +
0,
#879016
b0 !
b0 +
1,
#880268
b10 !
b10 +
0,
#881520
b11 !
b11 +
1,
#882772
b1 !
b1 +
0,
#884024
b0 !
b0 +
1,
#885276
b10 !
b10 +
0,
#886528
b11 !
b11 +
1,
#887780
b1 !
b1 +
0,
#889032
b0 !
b0 +
1,
#890284
b10 !
b10 +
0,
#891536
b11 !
b11 +
1,
#892788
b1 !
b1 +
0,
#894040
b0 !
b0 +
1,
#895292
b10 !
b10 +
0,
#896544
b11 !
b11 +
1,
#897796
b1 !
b1 +
0,
#899048
b0 !
b0 +
1,
#900300
b10 !
b10 +
0,
#901552
b11 !
b11 +
1,
#902804
b1 !
b1 +
0,
#904056
b0 !
b0 +
1,
#905308
b10 !
b10 +
0,
#906560
b11 !
b11 +
1,
#907812
b1 !
b1 +
0,
#909064
b0 !
b0 +
1,
#910316
b10 !
b10 +
0,
#911568
b11 !
b11 +
1,
#912820
b1 !
b1 +
0,
#914072
b0 !
b0 +
1,
#915324
b10 !
b10 +
0,
#916576
b11 !
b11 +
1,
#917828
b1 !
b1 +
0,
#919080
b0 !
b0 +
1,
#920332
b10 !
b10 +
0,
#921584
b11 !
b11 +
1,
#922836
b1 !
b1 +
0,
#924088
b0 !
b0 +
1,
#925340
b10 !
b10 +
0,
#926592
b11 !
b11 +
1,
#927844
b1 !
b1 +
0,
#929096
b0 !
b0 +
1,
#930348
b10 !
b10 +
0,
#931600
b11 !
b11 +
1,
#932852
b1 !
b1 +
0,
#934104
b0 !
b0 +
1,
#935356
b10 !
b10 +
0,
#936608
b11 !
b11 +
1,
#937860
b1 !
b1 +
0,
#939112
b0 !
b0 +
1,
#940364
b10 !
b10 +
0,
#941616
b11 !
b11 +
1,
#942868
b1 !
b1 +
0,
#944120
b0 !
b0 +
1,
#945372
b10 !
b10 +
0,
#946624
b11 !
b11 +
1,
#947876
b1 !
b1 +
0,
#949128
b0 !
b0 +
1,
#950380
b10 !
b10 +
0,
#951632
b11 !
b11 +
1,
#952884
b1 !
b1 +
0,
#954136
b0 !
b0 +
1,
#955388
b10 !
b10 +
0,
#956640
b11 !
b11 +
1,
#957892
b1 !
b1 +
0,
#959144
b0 !
b0 +
1,
#960396
r960.396 (
b10 !
b10 +
0,
#961648
b11 !
b11 +
1,
#962900
b1 !
b1 +
0,
#964152
b0 !
b0 +
1,
#965404
r1.264 -
b1000 *
b11111111 #
b11111111 )
b111 &
r199.6805111821071 %
r5.008000000000038 $
r965.404 '
b10 !
b10 +
0,
#966656
b11 !
b11 +
1,
#967920
b1 !
b1 +
0,
#969184
b0 !
b0 +
1,
#970448
b10 !
b10 +
0,
#971712
b11 !
b11 +
1,
#972976
b1 !
b1 +
0,
#974240
b0 !
b0 +
1,
#975504
b10 !
b10 +
0,
#976768
b11 !
b11 +
1,
#978032
b1 !
b1 +
0,
#979296
b0 !
b0 +
1,
#980560
b10 !
b10 +
0,
#981824
b11 !
b11 +
1,
#983088
b1 !
b1 +
0,
#984352
b0 !
b0 +
1,
#985616
b10 !
b10 +
0,
#986880
b11 !
b11 +
1,
#988144
b1 !
b1 +
0,
#989408
b0 !
b0 +
1,
#990672
b10 !
b10 +
0,
#991936
b11 !
b11 +
1,
#993200
b1 !
b1 +
0,
#994464
b0 !
b0 +
1,
#995728
b10 !
b10 +
0,
#996992
b11 !
b11 +
1,
#998256
b1 !
b1 +
0,
#999520
b0 !
b0 +
1,
#1000784
b10 !
b10 +
0,
#1002048
b11 !
b11 +
1,
#1003312
b1 !
b1 +
0,
#1004576
b0 !
b0 +
1,
#1005840
b10 !
b10 +
0,
#1007104
b11 !
b11 +
1,
#1008368
b1 !
b1 +
0,
#1009632
b0 !
b0 +
1,
#1010896
b10 !
b10 +
0,
#1012160
b11 !
b11 +
1,
