waves/waves_ring_osc_min_max.vcd
$date
	Thu Jul  3 10:20:30 2025
$end
$version
	Icarus Verilog
$end
$timescale
	1ps
$end
$scope module tb_ring_osc $end
$var wire 2 ! clockp [1:0] $end
$var reg 1 " reset $end
$var reg 26 # trim [25:0] $end
$scope module dut $end
$var wire 1 " reset $end
$var wire 26 $ trim [25:0] $end
$var wire 6 % bcount [5:0] $end
$var reg 2 & clockp [1:0] $end
$var reg 1 ' hiclock $end
$var real 1 ( delay $end
$upscope $end
$scope task measure_and_display_freq $end
$var real 1 ) end_time $end
$var real 1 * freq_mhz $end
$var real 1 + period $end
$var real 1 , start_time $end
$upscope $end
$upscope $end
$enddefinitions $end
#0
$dumpvars
r0 ,
r0 +
r0 *
r0 )
r1.168 (
0'
b0 &
b0 %
b0 $
b0 #
1"
b0 !
$end
#3000
1'
#4168
0'
#5336
1'
#6504
0'
#7672
1'
#8840
0'
#10008
1'
#11176
0'
#12344
1'
#13512
0'
#14680
1'
#15848
0'
#17016
1'
#18184
0'
#19352
1'
#20000
0"
#20520
b10 !
b10 &
0'
#21688
b11 !
b11 &
1'
#22856
b1 !
b1 &
0'
#24024
b0 !
b0 &
1'
#25192
b10 !
b10 &
0'
#26360
b11 !
b11 &
1'
#27528
b1 !
b1 &
0'
#28696
b0 !
b0 &
1'
#29864
b10 !
b10 &
0'
#31032
b11 !
b11 &
1'
#32200
b1 !
b1 &
0'
#33368
b0 !
b0 &
1'
#34536
b10 !
b10 &
0'
#35704
b11 !
b11 &
1'
#36872
b1 !
b1 &
0'
#38040
b0 !
b0 &
1'
#39208
b10 !
b10 &
0'
#40376
b11 !
b11 &
1'
#41544
b1 !
b1 &
0'
#42712
b0 !
b0 &
1'
#43880
b10 !
b10 &
0'
#45048
b11 !
b11 &
1'
#46216
b1 !
b1 &
0'
#47384
b0 !
b0 &
1'
#48552
b10 !
b10 &
0'
#49720
b11 !
b11 &
1'
#50888
b1 !
b1 &
0'
#52056
b0 !
b0 &
1'
#53224
b10 !
b10 &
0'
#54392
b11 !
b11 &
1'
#55560
b1 !
b1 &
0'
#56728
b0 !
b0 &
1'
#57896
b10 !
b10 &
0'
#59064
b11 !
b11 &
1'
#60232
b1 !
b1 &
0'
#61400
b0 !
b0 &
1'
#62568
b10 !
b10 &
0'
#63736
b11 !
b11 &
1'
#64904
b1 !
b1 &
0'
#66072
b0 !
b0 &
1'
#67240
b10 !
b10 &
0'
#68408
b11 !
b11 &
1'
#69576
b1 !
b1 &
0'
#70744
b0 !
b0 &
1'
#71912
b10 !
b10 &
0'
#73080
b11 !
b11 &
1'
#74248
b1 !
b1 &
0'
#75416
b0 !
b0 &
1'
#76584
b10 !
b10 &
0'
#77752
b11 !
b11 &
1'
#78920
b1 !
b1 &
0'
#80088
b0 !
b0 &
1'
#81256
b10 !
b10 &
0'
#82424
b11 !
b11 &
1'
#83592
b1 !
b1 &
0'
#84760
b0 !
b0 &
1'
#85928
b10 !
b10 &
0'
#87096
b11 !
b11 &
1'
#88264
b1 !
b1 &
0'
#89432
b0 !
b0 &
1'
#90600
b10 !
b10 &
0'
#91768
b11 !
b11 &
1'
#92936
b1 !
b1 &
0'
#94104
b0 !
b0 &
1'
#95272
b10 !
b10 &
0'
#96440
b11 !
b11 &
1'
#97608
b1 !
b1 &
0'
#98776
b0 !
b0 &
1'
#99944
b10 !
b10 &
0'
#101112
b11 !
b11 &
1'
#102280
b1 !
b1 &
0'
#103448
b0 !
b0 &
1'
#104616
b10 !
b10 &
0'
#105784
b11 !
b11 &
1'
#106952
b1 !
b1 &
0'
#108120
b0 !
b0 &
1'
#109288
b10 !
b10 &
0'
#110456
b11 !
b11 &
1'
#111624
b1 !
b1 &
0'
#112792
b0 !
b0 &
1'
#113960
b10 !
b10 &
0'
#115128
b11 !
b11 &
1'
#116296
b1 !
b1 &
0'
#117464
b0 !
b0 &
1'
#118632
b10 !
b10 &
0'
#119800
b11 !
b11 &
1'
#120968
b1 !
b1 &
0'
#122136
b0 !
b0 &
1'
#123304
b10 !
b10 &
0'
#124472
r124.472 ,
b11 !
b11 &
1'
#125640
b1 !
b1 &
0'
#126808
b0 !
b0 &
1'
#127976
b10 !
b10 &
0'
#129144
r214.0410958904104 *
r4.672000000000011 +
r129.144 )
b11 !
b11 &
1'
#130312
b1 !
b1 &
0'
#131480
b0 !
b0 &
1'
#132648
b10 !
b10 &
0'
#133816
b11 !
b11 &
1'
#134984
b1 !
b1 &
0'
#136152
b0 !
b0 &
1'
#137320
b10 !
b10 &
0'
#138488
b11 !
b11 &
1'
#139656
b1 !
b1 &
0'
#140824
b0 !
b0 &
1'
#141992
b10 !
b10 &
0'
#143160
b11 !
b11 &
1'
#144328
b1 !
b1 &
0'
#145496
b0 !
b0 &
1'
#146664
b10 !
b10 &
0'
#147832
b11 !
b11 &
1'
#149000
b1 !
b1 &
0'
#150168
b0 !
b0 &
1'
#151336
b10 !
b10 &
0'
#152504
b11 !
b11 &
1'
#153672
b1 !
b1 &
0'
#154840
b0 !
b0 &
1'
#156008
b10 !
b10 &
0'
#157176
b11 !
b11 &
1'
#158344
b1 !
b1 &
0'
#159512
b0 !
b0 &
1'
#160680
b10 !
b10 &
0'
#161848
b11 !
b11 &
1'
#163016
b1 !
b1 &
0'
#164184
b0 !
b0 &
1'
#165352
b10 !
b10 &
0'
#166520
b11 !
b11 &
1'
#167688
b1 !
b1 &
0'
#168856
b0 !
b0 &
1'
#170024
b10 !
b10 &
0'
#171192
b11 !
b11 &
1'
#172360
b1 !
b1 &
0'
#173528
b0 !
b0 &
1'
#174696
b10 !
b10 &
0'
#175864
b11 !
b11 &
1'
#177032
b1 !
b1 &
0'
#178200
b0 !
b0 &
1'
#179368
b10 !
b10 &
0'
#180536
b11 !
b11 &
1'
#181704
b1 !
b1 &
0'
#182872
b0 !
b0 &
1'
#184040
b10 !
b10 &
0'
#185208
b11 !
b11 &
1'
#186376
b1 !
b1 &
0'
#187544
b0 !
b0 &
1'
#188712
b10 !
b10 &
0'
#189880
b11 !
b11 &
1'
#191048
b1 !
b1 &
0'
#192216
b0 !
b0 &
1'
#193384
b10 !
b10 &
0'
#194552
b11 !
b11 &
1'
#195720
b1 !
b1 &
0'
#196888
b0 !
b0 &
1'
#198056
b10 !
b10 &
0'
#199224
b11 !
b11 &
1'
#200392
b1 !
b1 &
0'
#201560
b0 !
b0 &
1'
#202728
b10 !
b10 &
0'
#203896
b11 !
b11 &
1'
#205064
b1 !
b1 &
0'
#206232
b0 !
b0 &
1'
#207400
b10 !
b10 &
0'
#208568
b11 !
b11 &
1'
#209736
b1 !
b1 &
0'
#210904
b0 !
b0 &
1'
#212072
b10 !
b10 &
0'
#213240
b11 !
b11 &
1'
#214408
b1 !
b1 &
0'
#215576
b0 !
b0 &
1'
#216744
b10 !
b10 &
0'
#217912
b11 !
b11 &
1'
#219080
b1 !
b1 &
0'
#220248
b0 !
b0 &
1'
#221416
b10 !
b10 &
0'
#222584
b11 !
b11 &
1'
#223752
b1 !
b1 &
0'
#224920
b0 !
b0 &
1'
#226088
b10 !
b10 &
0'
#227256
b11 !
b11 &
1'
#228424
b1 !
b1 &
0'
#229144
r1.48 (
b11010 %
b11111111111111111111111111 #
b11111111111111111111111111 $
#229592
b0 !
b0 &
1'
#231072
b10 !
b10 &
0'
#232552
b11 !
b11 &
1'
#234032
b1 !
b1 &
0'
#235512
b0 !
b0 &
1'
#236992
b10 !
b10 &
0'
#238472
b11 !
b11 &
1'
#239952
b1 !
b1 &
0'
#241432
b0 !
b0 &
1'
#242912
b10 !
b10 &
0'
#244392
b11 !
b11 &
1'
#245872
b1 !
b1 &
0'
#247352
b0 !
b0 &
1'
#248832
b10 !
b10 &
0'
#250312
b11 !
b11 &
1'
#251792
b1 !
b1 &
0'
#253272
b0 !
b0 &
1'
#254752
b10 !
b10 &
0'
#256232
b11 !
b11 &
1'
#257712
b1 !
b1 &
0'
#259192
b0 !
b0 &
1'
#260672
b10 !
b10 &
0'
#262152
b11 !
b11 &
1'
#263632
b1 !
b1 &
0'
#265112
b0 !
b0 &
1'
#266592
b10 !
b10 &
0'
#268072
b11 !
b11 &
1'
#269552
b1 !
b1 &
0'
#271032
b0 !
b0 &
1'
#272512
b10 !
b10 &
0'
#273992
b11 !
b11 &
1'
#275472
b1 !
b1 &
0'
#276952
b0 !
b0 &
1'
#278432
b10 !
b10 &
0'
#279912
b11 !
b11 &
1'
#281392
b1 !
b1 &
0'
#282872
b0 !
b0 &
1'
#284352
b10 !
b10 &
0'
#285832
b11 !
b11 &
1'
#287312
b1 !
b1 &
0'
#288792
b0 !
b0 &
1'
#290272
b10 !
b10 &
0'
#291752
b11 !
b11 &
1'
#293232
b1 !
b1 &
0'
#294712
b0 !
b0 &
1'
#296192
b10 !
b10 &
0'
#297672
b11 !
b11 &
1'
#299152
b1 !
b1 &
0'
#300632
b0 !
b0 &
1'
#302112
b10 !
b10 &
0'
#303592
b11 !
b11 &
1'
#305072
b1 !
b1 &
0'
#306552
b0 !
b0 &
1'
#308032
b10 !
b10 &
0'
#309512
b11 !
b11 &
1'
#310992
b1 !
b1 &
0'
#312472
b0 !
b0 &
1'
#313952
b10 !
b10 &
0'
#315432
b11 !
b11 &
1'
#316912
b1 !
b1 &
0'
#318392
b0 !
b0 &
1'
#319872
b10 !
b10 &
0'
#321352
b11 !
b11 &
1'
#322832
b1 !
b1 &
0'
#324312
b0 !
b0 &
1'
#325792
b10 !
b10 &
0'
#327272
b11 !
b11 &
1'
#328752
b1 !
b1 &
0'
#330232
b0 !
b0 &
1'
#331712
b10 !
b10 &
0'
#333192
r333.192 ,
b11 !
b11 &
1'
#334672
b1 !
b1 &
0'
#336152
b0 !
b0 &
1'
#337632
b10 !
b10 &
0'
#339112
r168.9189189189185 *
r5.920000000000016 +
r339.112 )
b11 !
b11 &
1'
#340592
b1 !
b1 &
0'
#342072
b0 !
b0 &
1'
#343552
b10 !
b10 &
0'
#345032
b11 !
b11 &
1'
#346512
b1 !
b1 &
0'
#347992
b0 !
b0 &
1'
#349472
b10 !
b10 &
0'
#350952
b11 !
b11 &
1'
#352432
b1 !
b1 &
0'
#353912
b0 !
b0 &
1'
#355392
b10 !
b10 &
0'
#356872
b11 !
b11 &
1'
#358352
b1 !
b1 &
0'
#359832
b0 !
b0 &
1'
#361312
b10 !
b10 &
0'
#362792
b11 !
b11 &
1'
#364272
b1 !
b1 &
0'
#365752
b0 !
b0 &
1'
#367232
b10 !
b10 &
0'
#368712
b11 !
b11 &
1'
#370192
b1 !
b1 &
0'
#371672
b0 !
b0 &
1'
#373152
b10 !
b10 &
0'
#374632
b11 !
b11 &
1'
#376112
b1 !
b1 &
0'
#377592
b0 !
b0 &
1'
#379072
b10 !
b10 &
0'
#380552
b11 !
b11 &
1'
#382032
b1 !
b1 &
0'
#383512
b0 !
b0 &
1'
#384992
b10 !
b10 &
0'
#386472
b11 !
b11 &
1'
#387952
b1 !
b1 &
0'
#389432
b0 !
b0 &
1'
#390912
b10 !
b10 &
0'
#392392
b11 !
b11 &
1'
#393872
b1 !
b1 &
0'
#395352
b0 !
b0 &
1'
#396832
b10 !
b10 &
0'
#398312
b11 !
b11 &
1'
#399792
b1 !
b1 &
0'
#401272
b0 !
b0 &
1'
#402752
b10 !
b10 &
0'
#404232
b11 !
b11 &
1'
#405712
b1 !
b1 &
0'
#407192
b0 !
b0 &
1'
#408672
b10 !
b10 &
0'
#410152
b11 !
b11 &
1'
#411632
b1 !
b1 &
0'
#413112
b0 !
b0 &
1'
#414592
b10 !
b10 &
0'
#416072
b11 !
b11 &
1'
#417552
b1 !
b1 &
0'
#419032
b0 !
b0 &
1'
#420512
b10 !
b10 &
0'
#421992
b11 !
b11 &
1'
#423472
b1 !
b1 &
0'
#424952
b0 !
b0 &
1'
#426432
b10 !
b10 &
0'
#427912
b11 !
b11 &
1'
#429392
b1 !
b1 &
0'
#430872
b0 !
b0 &
1'
#432352
b10 !
b10 &
0'
#433832
b11 !
b11 &
1'
#435312
b1 !
b1 &
0'
#436792
b0 !
b0 &
1'
#438272
b10 !
b10 &
0'
#439112
r1.324 (
b1101 %
b1111111111111 #
b1111111111111 $
#439752
b11 !
b11 &
1'
#441076
b1 !
b1 &
0'
#442400
b0 !
b0 &
1'
#443724
b10 !
b10 &
0'
#445048
b11 !
b11 &
1'
#446372
b1 !
b1 &
0'
#447696
b0 !
b0 &
1'
#449020
b10 !
b10 &
0'
#450344
b11 !
b11 &
1'
#451668
b1 !
b1 &
0'
#452992
b0 !
b0 &
1'
#454316
b10 !
b10 &
0'
#455640
b11 !
b11 &
1'
#456964
b1 !
b1 &
0'
#458288
b0 !
b0 &
1'
#459612
b10 !
b10 &
0'
#460936
b11 !
b11 &
1'
#462260
b1 !
b1 &
0'
#463584
b0 !
b0 &
1'
#464908
b10 !
b10 &
0'
#466232
b11 !
b11 &
1'
#467556
b1 !
b1 &
0'
#468880
b0 !
b0 &
1'
#470204
b10 !
b10 &
0'
#471528
b11 !
b11 &
1'
#472852
b1 !
b1 &
0'
#474176
b0 !
b0 &
1'
#475500
b10 !
b10 &
0'
#476824
b11 !
b11 &
1'
#478148
b1 !
b1 &
0'
#479472
b0 !
b0 &
1'
#480796
b10 !
b10 &
0'
#482120
b11 !
b11 &
1'
#483444
b1 !
b1 &
0'
#484768
b0 !
b0 &
1'
#486092
b10 !
b10 &
0'
#487416
b11 !
b11 &
1'
#488740
b1 !
b1 &
0'
#490064
b0 !
b0 &
1'
#491388
b10 !
b10 &
0'
#492712
b11 !
b11 &
1'
#494036
b1 !
b1 &
0'
#495360
b0 !
b0 &
1'
#496684
b10 !
b10 &
0'
#498008
b11 !
b11 &
1'
#499332
b1 !
b1 &
0'
#500656
b0 !
b0 &
1'
#501980
b10 !
b10 &
0'
#503304
b11 !
b11 &
1'
#504628
b1 !
b1 &
0'
#505952
b0 !
b0 &
1'
#507276
b10 !
b10 &
0'
#508600
b11 !
b11 &
1'
#509924
b1 !
b1 &
0'
#511248
b0 !
b0 &
1'
#512572
b10 !
b10 &
0'
#513896
b11 !
b11 &
1'
#515220
b1 !
b1 &
0'
#516544
b0 !
b0 &
1'
#517868
b10 !
b10 &
0'
#519192
b11 !
b11 &
1'
#520516
b1 !
b1 &
0'
#521840
b0 !
b0 &
1'
#523164
b10 !
b10 &
0'
#524488
b11 !
b11 &
1'
#525812
b1 !
b1 &
0'
#527136
b0 !
b0 &
1'
#528460
b10 !
b10 &
0'
#529784
b11 !
b11 &
1'
#531108
b1 !
b1 &
0'
#532432
b0 !
b0 &
1'
#533756
b10 !
b10 &
0'
#535080
b11 !
b11 &
1'
#536404
b1 !
b1 &
0'
#537728
b0 !
b0 &
1'
#539052
b10 !
b10 &
0'
#540376
r540.376 ,
b11 !
b11 &
1'
#541700
b1 !
b1 &
0'
#543024
b0 !
b0 &
1'
#544348
b10 !
b10 &
0'
#545672
r188.8217522658593 *
r5.296000000000049 +
r545.672 )
b11 !
b11 &
1'
#546996
b1 !
b1 &
0'
#548320
b0 !
b0 &
1'
#549644
b10 !
b10 &
0'
#550968
b11 !
b11 &
1'
#552292
b1 !
b1 &
0'
#553616
b0 !
b0 &
1'
#554940
b10 !
b10 &
0'
#556264
b11 !
b11 &
1'
#557588
b1 !
b1 &
0'
#558912
b0 !
b0 &
1'
#560236
b10 !
b10 &
0'
#561560
b11 !
b11 &
1'
#562884
b1 !
b1 &
0'
#564208
b0 !
b0 &
1'
#565532
b10 !
b10 &
0'
#566856
b11 !
b11 &
1'
#568180
b1 !
b1 &
0'
#569504
b0 !
b0 &
1'
#570828
b10 !
b10 &
0'
#572152
b11 !
b11 &
1'
#573476
b1 !
b1 &
0'
#574800
b0 !
b0 &
1'
#576124
b10 !
b10 &
0'
#577448
b11 !
b11 &
1'
#578772
b1 !
b1 &
0'
#580096
b0 !
b0 &
1'
#581420
b10 !
b10 &
0'
#582744
b11 !
b11 &
1'
#584068
b1 !
b1 &
0'
#585392
b0 !
b0 &
1'
#586716
b10 !
b10 &
0'
#588040
b11 !
b11 &
1'
#589364
b1 !
b1 &
0'
#590688
b0 !
b0 &
1'
#592012
b10 !
b10 &
0'
#593336
b11 !
b11 &
1'
#594660
b1 !
b1 &
0'
#595984
b0 !
b0 &
1'
#597308
b10 !
b10 &
0'
#598632
b11 !
b11 &
1'
#599956
b1 !
b1 &
0'
#601280
b0 !
b0 &
1'
#602604
b10 !
b10 &
0'
#603928
b11 !
b11 &
1'
#605252
b1 !
b1 &
0'
#606576
b0 !
b0 &
1'
#607900
b10 !
b10 &
0'
#609224
b11 !
b11 &
1'
#610548
b1 !
b1 &
0'
#611872
b0 !
b0 &
1'
#613196
b10 !
b10 &
0'
#614520
b11 !
b11 &
1'
#615844
b1 !
b1 &
0'
#617168
b0 !
b0 &
1'
#618492
b10 !
b10 &
0'
#619816
b11 !
b11 &
1'
#621140
b1 !
b1 &
0'
#622464
b0 !
b0 &
1'
#623788
b10 !
b10 &
0'
#625112
b11 !
b11 &
1'
#626436
b1 !
b1 &
0'
#627760
b0 !
b0 &
1'
#629084
b10 !
b10 &
0'
#630408
b11 !
b11 &
1'
#631732
b1 !
b1 &
0'
#633056
b0 !
b0 &
1'
#634380
b10 !
b10 &
0'
#635704
b11 !
b11 &
1'
#637028
b1 !
b1 &
0'
#638352
b0 !
b0 &
1'
#639676
b10 !
b10 &
0'
#641000
b11 !
b11 &
1'
#642324
b1 !
b1 &
0'
#643648
b0 !
b0 &
1'
#644972
b10 !
b10 &
0'
